Physics/Experimental 1/Lab 1/green led.csv

#Digilent WaveForms Oscilloscope Acquisition
#Device Name: Discovery2
#Serial Number: SN:210321A41F6B
#Date Time: 2024-01-30 16:46:34.380
#Sample rate: 4000Hz
#Samples: 7279
#Trigger: Source: Channel 1 Type: Edge Condition: Rising Level: 1.2 V Hyst.: Auto HoldOff: 0 s
#Channel 1: Range: 1 V/div Offset: 500 mV Attenuation: 1 X Sample Mode: Average
#Channel 2: Range: 1 V/div Offset: 500 mV Attenuation: 1 X Sample Mode: Average
#Math 1: Function: C2 * ( 0.0010067)

#Wavegen Channel 1: Running
#Mode: Simple
#Type: RampUp
#Frequency: 1 Hz
#Period: 1 s
#Amplitude: 5 V
#Offset: 0 V
#Symmetry: 100 %
#Phase: 0 °

Time (s),Channel 1 (V),Channel 2 (V),Math 1 (A)
-1,2.339800108606824,1.593494679036751,0.001604171093386297
-0.99975,2.339800108606824,1.593494679036751,0.001604171093386297
-0.9995000000000001,2.339800108606824,1.597161768361409,0.001607862752209431
-0.99925,2.339800108606824,1.597161768361409,0.001607862752209431
-0.999,2.339800108606824,1.600828857686068,0.001611554411032564
-0.99875,2.339800108606824,1.604495947010726,0.001615246069855697
-0.9985000000000001,2.339800108606824,1.604495947010726,0.001615246069855697
-0.99825,2.339800108606824,1.608163036335384,0.001618937728678831
-0.998,2.339800108606824,1.611830125660042,0.001622629387501965
-0.99775,2.339800108606824,1.615497214984701,0.001626321046325098
-0.9975000000000001,2.339800108606824,1.615497214984701,0.001626321046325098
-0.99725,2.339800108606824,1.619164304309359,0.001630012705148232
-0.997,2.339800108606824,1.622831393634017,0.001633704363971365
-0.99675,2.339800108606824,1.622831393634017,0.001633704363971365
-0.9965000000000001,2.339800108606824,1.626498482958675,0.001637396022794498
-0.99625,2.339800108606824,1.626498482958675,0.001637396022794498
-0.996,2.339800108606824,1.630165572283334,0.001641087681617632
-0.99575,2.343451090167355,1.633832661607992,0.001644779340440765
-0.9955000000000001,2.343451090167355,1.633832661607992,0.001644779340440765
-0.99525,2.343451090167355,1.63749975093265,0.001648470999263899
-0.995,2.343451090167355,1.641166840257309,0.001652162658087032
-0.99475,2.343451090167355,1.644833929581967,0.001655854316910166
-0.9945000000000001,2.343451090167355,1.644833929581967,0.001655854316910166
-0.99425,2.343451090167355,1.648501018906625,0.001659545975733299
-0.994,2.343451090167355,1.648501018906625,0.001659545975733299
-0.99375,2.343451090167355,1.652168108231283,0.001663237634556433
-0.9935,2.343451090167355,1.652168108231283,0.001663237634556433
-0.99325,2.343451090167355,1.655835197555942,0.001666929293379566
-0.993,2.343451090167355,1.6595022868806,0.0016706209522027
-0.99275,2.343451090167355,1.663169376205258,0.001674312611025833
-0.9925,2.343451090167355,1.663169376205258,0.001674312611025833
-0.99225,2.343451090167355,1.666836465529916,0.001678004269848967
-0.992,2.343451090167355,1.666836465529916,0.001678004269848967
-0.99175,2.343451090167355,1.670503554854575,0.0016816959286721
-0.9915,2.343451090167355,1.674170644179233,0.001685387587495234
-0.99125,2.343451090167355,1.674170644179233,0.001685387587495234
-0.991,2.347102071727887,1.677837733503891,0.001689079246318367
-0.99075,2.347102071727887,1.681504822828549,0.001692770905141501
-0.9905,2.343451090167355,1.681504822828549,0.001692770905141501
-0.99025,2.343451090167355,1.685171912153208,0.001696462563964634
-0.99,2.343451090167355,1.688839001477866,0.001700154222787768
-0.98975,2.347102071727887,1.692506090802524,0.001703845881610901
-0.9895,2.347102071727887,1.692506090802524,0.001703845881610901
-0.98925,2.343451090167355,1.696173180127182,0.001707537540434034
-0.989,2.347102071727887,1.696173180127182,0.001707537540434034
-0.98875,2.343451090167355,1.699840269451841,0.001711229199257168
-0.9885,2.347102071727887,1.703507358776499,0.001714920858080301
-0.98825,2.347102071727887,1.703507358776499,0.001714920858080301
-0.988,2.347102071727887,1.707174448101157,0.001718612516903435
-0.98775,2.347102071727887,1.707174448101157,0.001718612516903435
-0.9875,2.347102071727887,1.707174448101157,0.001718612516903435
-0.98725,2.347102071727887,1.710841537425816,0.001722304175726569
-0.987,2.347102071727887,1.714508626750474,0.001725995834549702
-0.98675,2.347102071727887,1.714508626750474,0.001725995834549702
-0.9865,2.347102071727887,1.718175716075132,0.001729687493372835
-0.98625,2.347102071727887,1.72184280539979,0.001733379152195969
-0.986,2.347102071727887,1.72184280539979,0.001733379152195969
-0.98575,2.347102071727887,1.725509894724449,0.001737070811019102
-0.9855,2.347102071727887,1.729176984049107,0.001740762469842236
-0.98525,2.347102071727887,1.729176984049107,0.001740762469842236
-0.985,2.347102071727887,1.732844073373765,0.001744454128665369
-0.98475,2.350753053288418,1.736511162698423,0.001748145787488503
-0.9845,2.350753053288418,1.736511162698423,0.001748145787488503
-0.98425,2.350753053288418,1.740178252023082,0.001751837446311636
-0.984,2.347102071727887,1.74384534134774,0.00175552910513477
-0.98375,2.350753053288418,1.74384534134774,0.00175552910513477
-0.9835,2.347102071727887,1.747512430672398,0.001759220763957903
-0.98325,2.347102071727887,1.747512430672398,0.001759220763957903
-0.983,2.350753053288418,1.754846609321715,0.00176660408160417
-0.98275,2.350753053288418,1.754846609321715,0.00176660408160417
-0.9825,2.350753053288418,1.754846609321715,0.00176660408160417
-0.98225,2.350753053288418,1.758513698646373,0.001770295740427304
-0.982,2.350753053288418,1.762180787971031,0.001773987399250437
-0.98175,2.350753053288418,1.76584787729569,0.001777679058073571
-0.9815,2.350753053288418,1.76584787729569,0.001777679058073571
-0.98125,2.350753053288418,1.769514966620348,0.001781370716896704
-0.981,2.350753053288418,1.773182055945006,0.001785062375719837
-0.98075,2.350753053288418,1.773182055945006,0.001785062375719837
-0.9805,2.350753053288418,1.773182055945006,0.001785062375719837
-0.98025,2.350753053288418,1.776849145269664,0.001788754034542971
-0.98,2.35440403484895,1.780516234594323,0.001792445693366104
-0.97975,2.350753053288418,1.780516234594323,0.001792445693366104
-0.9795,2.350753053288418,1.784183323918981,0.001796137352189238
-0.97925,2.35440403484895,1.784183323918981,0.001796137352189238
-0.979,2.35440403484895,1.787850413243639,0.001799829011012371
-0.97875,2.35440403484895,1.787850413243639,0.001799829011012371
-0.9785,2.350753053288418,1.791517502568297,0.001803520669835505
-0.97825,2.350753053288418,1.795184591892956,0.001807212328658638
-0.978,2.35440403484895,1.795184591892956,0.001807212328658638
-0.97775,2.35440403484895,1.798851681217614,0.001810903987481772
-0.9775,2.35440403484895,1.798851681217614,0.001810903987481772
-0.97725,2.35440403484895,1.802518770542272,0.001814595646304905
-0.977,2.35440403484895,1.80618585986693,0.001818287305128039
-0.97675,2.35440403484895,1.809852949191589,0.001821978963951172
-0.9765,2.35440403484895,1.809852949191589,0.001821978963951172
-0.97625,2.35440403484895,1.813520038516247,0.001825670622774306
-0.976,2.35440403484895,1.817187127840905,0.001829362281597439
-0.97575,2.35440403484895,1.817187127840905,0.001829362281597439
-0.9755,2.35440403484895,1.820854217165564,0.001833053940420573
-0.97525,2.35440403484895,1.820854217165564,0.001833053940420573
-0.975,2.35440403484895,1.824521306490222,0.001836745599243706
-0.97475,2.35440403484895,1.82818839581488,0.001840437258066839
-0.9745,2.35440403484895,1.82818839581488,0.001840437258066839
-0.9742499999999999,2.35440403484895,1.831855485139538,0.001844128916889973
-0.974,2.35440403484895,1.835522574464197,0.001847820575713107
-0.97375,2.35440403484895,1.835522574464197,0.001847820575713107
-0.9735,2.35440403484895,1.839189663788855,0.00185151223453624
-0.9732499999999999,2.358055016409481,1.842856753113513,0.001855203893359374
-0.973,2.358055016409481,1.842856753113513,0.001855203893359374
-0.97275,2.358055016409481,1.846523842438171,0.001858895552182507
-0.9725,2.358055016409481,1.85019093176283,0.00186258721100564
-0.9722499999999999,2.358055016409481,1.85019093176283,0.00186258721100564
-0.972,2.358055016409481,1.853858021087488,0.001866278869828774
-0.97175,2.358055016409481,1.857525110412146,0.001869970528651908
-0.9715,2.358055016409481,1.861192199736804,0.001873662187475041
-0.9712499999999999,2.358055016409481,1.861192199736804,0.001873662187475041
-0.971,2.358055016409481,1.861192199736804,0.001873662187475041
-0.97075,2.358055016409481,1.864859289061463,0.001877353846298174
-0.9705,2.358055016409481,1.868526378386121,0.001881045505121308
-0.9702499999999999,2.361705997970012,1.872193467710779,0.001884737163944441
-0.97,2.358055016409481,1.872193467710779,0.001884737163944441
-0.96975,2.358055016409481,1.875860557035437,0.001888428822767575
-0.9695,2.358055016409481,1.875860557035437,0.001888428822767575
-0.9692499999999999,2.358055016409481,1.879527646360096,0.001892120481590708
-0.969,2.358055016409481,1.883194735684754,0.001895812140413842
-0.96875,2.358055016409481,1.883194735684754,0.001895812140413842
-0.9685,2.358055016409481,1.886861825009412,0.001899503799236975
-0.9682500000000001,2.358055016409481,1.89052891433407,0.001903195458060109
-0.968,2.361705997970012,1.894196003658729,0.001906887116883242
-0.96775,2.361705997970012,1.894196003658729,0.001906887116883242
-0.9675,2.361705997970012,1.897863092983387,0.001910578775706376
-0.9672500000000001,2.361705997970012,1.897863092983387,0.001910578775706376
-0.967,2.361705997970012,1.901530182308045,0.001914270434529509
-0.96675,2.361705997970012,1.905197271632703,0.001917962093352643
-0.9665,2.361705997970012,1.905197271632703,0.001917962093352643
-0.9662500000000001,2.358055016409481,1.908864360957362,0.001921653752175776
-0.966,2.361705997970012,1.908864360957362,0.001921653752175776
-0.96575,2.361705997970012,1.91253145028202,0.00192534541099891
-0.9655,2.361705997970012,1.916198539606678,0.001929037069822043
-0.9652500000000001,2.361705997970012,1.916198539606678,0.001929037069822043
-0.965,2.361705997970012,1.919865628931336,0.001932728728645176
-0.96475,2.361705997970012,1.923532718255995,0.00193642038746831
-0.9645,2.361705997970012,1.923532718255995,0.00193642038746831
-0.9642500000000001,2.361705997970012,1.927199807580653,0.001940112046291443
-0.964,2.361705997970012,1.927199807580653,0.001940112046291443
-0.96375,2.361705997970012,1.930866896905311,0.001943803705114577
-0.9635,2.361705997970012,1.93453398622997,0.00194749536393771
-0.9632500000000001,2.361705997970012,1.93453398622997,0.00194749536393771
-0.963,2.361705997970012,1.938201075554628,0.001951187022760844
-0.96275,2.361705997970012,1.941868164879286,0.001954878681583977
-0.9625,2.361705997970012,1.941868164879286,0.001954878681583977
-0.96225,2.361705997970012,1.945535254203944,0.001958570340407111
-0.962,2.361705997970012,1.949202343528603,0.001962261999230244
-0.96175,2.361705997970012,1.949202343528603,0.001962261999230244
-0.9615,2.361705997970012,1.952869432853261,0.001965953658053378
-0.96125,2.361705997970012,1.952869432853261,0.001965953658053378
-0.961,2.365356979530544,1.956536522177919,0.001969645316876511
-0.96075,2.361705997970012,1.960203611502577,0.001973336975699644
-0.9605,2.361705997970012,1.963870700827236,0.001977028634522778
-0.96025,2.365356979530544,1.963870700827236,0.001977028634522778
-0.96,2.365356979530544,1.967537790151894,0.001980720293345911
-0.95975,2.365356979530544,1.971204879476552,0.001984411952169045
-0.9595,2.361705997970012,1.971204879476552,0.001984411952169045
-0.95925,2.365356979530544,1.97487196880121,0.001988103610992178
-0.959,2.365356979530544,1.97487196880121,0.001988103610992178
-0.95875,2.365356979530544,1.978539058125869,0.001991795269815312
-0.9585,2.365356979530544,1.982206147450527,0.001995486928638446
-0.95825,2.365356979530544,1.982206147450527,0.001995486928638446
-0.958,2.365356979530544,1.985873236775185,0.001999178587461579
-0.95775,2.365356979530544,1.985873236775185,0.001999178587461579
-0.9575,2.365356979530544,1.989540326099844,0.002002870246284713
-0.95725,2.365356979530544,1.989540326099844,0.002002870246284713
-0.957,2.365356979530544,1.993207415424502,0.002006561905107846
-0.95675,2.365356979530544,1.99687450474916,0.002010253563930979
-0.9565,2.365356979530544,1.99687450474916,0.002010253563930979
-0.95625,2.369007961091075,2.000541594073819,0.002013945222754113
-0.956,2.365356979530544,2.000541594073819,0.002013945222754113
-0.95575,2.365356979530544,2.004208683398477,0.002017636881577246
-0.9555,2.369007961091075,2.007875772723135,0.00202132854040038
-0.95525,2.369007961091075,2.007875772723135,0.00202132854040038
-0.955,2.369007961091075,2.011542862047794,0.002025020199223514
-0.95475,2.369007961091075,2.015209951372452,0.002028711858046647
-0.9545,2.369007961091075,2.015209951372452,0.002028711858046647
-0.95425,2.369007961091075,2.01887704069711,0.00203240351686978
-0.954,2.369007961091075,2.022544130021768,0.002036095175692914
-0.95375,2.369007961091075,2.022544130021768,0.002036095175692914
-0.9535,2.369007961091075,2.026211219346426,0.002039786834516047
-0.95325,2.369007961091075,2.029878308671085,0.002043478493339181
-0.953,2.369007961091075,2.029878308671085,0.002043478493339181
-0.95275,2.369007961091075,2.029878308671085,0.002043478493339181
-0.9525,2.369007961091075,2.033545397995743,0.002047170152162314
-0.95225,2.372658942651607,2.037212487320401,0.002050861810985448
-0.952,2.372658942651607,2.04087957664506,0.002054553469808581
-0.95175,2.369007961091075,2.04087957664506,0.002054553469808581
-0.9515,2.369007961091075,2.044546665969718,0.002058245128631714
-0.95125,2.369007961091075,2.048213755294376,0.002061936787454848
-0.951,2.372658942651607,2.048213755294376,0.002061936787454848
-0.95075,2.372658942651607,2.051880844619034,0.002065628446277982
-0.9505,2.372658942651607,2.055547933943692,0.002069320105101115
-0.95025,2.369007961091075,2.055547933943692,0.002069320105101115
-0.95,2.372658942651607,2.059215023268351,0.002073011763924249
-0.94975,2.372658942651607,2.059215023268351,0.002073011763924249
-0.9495,2.372658942651607,2.062882112593009,0.002076703422747382
-0.94925,2.372658942651607,2.066549201917667,0.002080395081570516
-0.949,2.372658942651607,2.066549201917667,0.002080395081570516
-0.94875,2.372658942651607,2.070216291242326,0.002084086740393649
-0.9485,2.372658942651607,2.070216291242326,0.002084086740393649
-0.94825,2.372658942651607,2.073883380566984,0.002087778399216782
-0.948,2.372658942651607,2.077550469891642,0.002091470058039916
-0.94775,2.372658942651607,2.0812175592163,0.002095161716863049
-0.9475,2.372658942651607,2.0812175592163,0.002095161716863049
-0.94725,2.372658942651607,2.084884648540958,0.002098853375686183
-0.947,2.372658942651607,2.088551737865617,0.002102545034509316
-0.94675,2.372658942651607,2.092218827190275,0.00210623669333245
-0.9465,2.372658942651607,2.092218827190275,0.00210623669333245
-0.94625,2.372658942651607,2.095885916514933,0.002109928352155583
-0.946,2.372658942651607,2.095885916514933,0.002109928352155583
-0.94575,2.372658942651607,2.099553005839592,0.002113620010978717
-0.9455,2.372658942651607,2.099553005839592,0.002113620010978717
-0.94525,2.372658942651607,2.10322009516425,0.00211731166980185
-0.945,2.372658942651607,2.106887184488908,0.002121003328624984
-0.94475,2.372658942651607,2.110554273813567,0.002124694987448117
-0.9445,2.372658942651607,2.110554273813567,0.002124694987448117
-0.94425,2.372658942651607,2.114221363138225,0.002128386646271251
-0.944,2.372658942651607,2.117888452462883,0.002132078305094384
-0.94375,2.372658942651607,2.117888452462883,0.002132078305094384
-0.9435,2.376309924212138,2.121555541787541,0.002135769963917518
-0.94325,2.372658942651607,2.121555541787541,0.002135769963917518
-0.9429999999999999,2.376309924212138,2.125222631112199,0.002139461622740651
-0.94275,2.376309924212138,2.128889720436858,0.002143153281563785
-0.9425,2.376309924212138,2.128889720436858,0.002143153281563785
-0.94225,2.376309924212138,2.132556809761516,0.002146844940386918
-0.9419999999999999,2.372658942651607,2.136223899086174,0.002150536599210051
-0.94175,2.376309924212138,2.136223899086174,0.002150536599210051
-0.9415,2.372658942651607,2.136223899086174,0.002150536599210051
-0.94125,2.376309924212138,2.139890988410833,0.002154228258033185
-0.9409999999999999,2.376309924212138,2.143558077735491,0.002157919916856319
-0.94075,2.376309924212138,2.147225167060149,0.002161611575679452
-0.9405,2.376309924212138,2.147225167060149,0.002161611575679452
-0.94025,2.376309924212138,2.150892256384807,0.002165303234502585
-0.9399999999999999,2.376309924212138,2.154559345709466,0.002168994893325719
-0.93975,2.376309924212138,2.154559345709466,0.002168994893325719
-0.9395,2.376309924212138,2.158226435034124,0.002172686552148852
-0.93925,2.376309924212138,2.158226435034124,0.002172686552148852
-0.9389999999999999,2.376309924212138,2.161893524358782,0.002176378210971986
-0.93875,2.376309924212138,2.16556061368344,0.002180069869795119
-0.9385,2.376309924212138,2.169227703008099,0.002183761528618253
-0.93825,2.376309924212138,2.169227703008099,0.002183761528618253
-0.9379999999999999,2.376309924212138,2.172894792332757,0.002187453187441386
-0.93775,2.376309924212138,2.176561881657415,0.00219114484626452
-0.9375,2.376309924212138,2.176561881657415,0.00219114484626452
-0.93725,2.376309924212138,2.180228970982073,0.002194836505087653
-0.9370000000000001,2.376309924212138,2.183896060306732,0.002198528163910787
-0.93675,2.376309924212138,2.183896060306732,0.002198528163910787
-0.9365,2.376309924212138,2.18756314963139,0.00220221982273392
-0.93625,2.376309924212138,2.191230238956048,0.002205911481557053
-0.9360000000000001,2.376309924212138,2.194897328280707,0.002209603140380187
-0.93575,2.376309924212138,2.194897328280707,0.002209603140380187
-0.9355,2.379960905772669,2.198564417605365,0.00221329479920332
-0.93525,2.379960905772669,2.202231506930023,0.002216986458026454
-0.9350000000000001,2.379960905772669,2.202231506930023,0.002216986458026454
-0.93475,2.379960905772669,2.205898596254681,0.002220678116849587
-0.9345,2.376309924212138,2.205898596254681,0.002220678116849587
-0.93425,2.379960905772669,2.20956568557934,0.002224369775672721
-0.9340000000000001,2.376309924212138,2.213232774903998,0.002228061434495855
-0.93375,2.379960905772669,2.216899864228656,0.002231753093318988
-0.9335,2.379960905772669,2.216899864228656,0.002231753093318988
-0.93325,2.379960905772669,2.220566953553314,0.002235444752142121
-0.9330000000000001,2.379960905772669,2.220566953553314,0.002235444752142121
-0.93275,2.379960905772669,2.224234042877973,0.002239136410965255
-0.9325,2.379960905772669,2.227901132202631,0.002242828069788388
-0.93225,2.379960905772669,2.227901132202631,0.002242828069788388
-0.9320000000000001,2.379960905772669,2.231568221527289,0.002246519728611522
-0.93175,2.379960905772669,2.231568221527289,0.002246519728611522
-0.9315,2.379960905772669,2.235235310851948,0.002250211387434655
-0.93125,2.379960905772669,2.238902400176606,0.002253903046257789
-0.931,2.379960905772669,2.238902400176606,0.002253903046257789
-0.93075,2.379960905772669,2.242569489501264,0.002257594705080922
-0.9305,2.379960905772669,2.242569489501264,0.002257594705080922
-0.93025,2.379960905772669,2.242569489501264,0.002257594705080922
-0.93,2.379960905772669,2.246236578825922,0.002261286363904056
-0.92975,2.379960905772669,2.246236578825922,0.002261286363904056
-0.9295,2.383611887333201,2.24990366815058,0.002264978022727189
-0.92925,2.383611887333201,2.253570757475239,0.002268669681550323
-0.929,2.383611887333201,2.257237846799897,0.002272361340373456
-0.92875,2.383611887333201,2.257237846799897,0.002272361340373456
-0.9285,2.383611887333201,2.260904936124555,0.002276052999196589
-0.92825,2.383611887333201,2.260904936124555,0.002276052999196589
-0.928,2.383611887333201,2.264572025449214,0.002279744658019723
-0.92775,2.383611887333201,2.268239114773872,0.002283436316842856
-0.9275,2.383611887333201,2.27190620409853,0.00228712797566599
-0.92725,2.383611887333201,2.27190620409853,0.00228712797566599
