Physics/Experimental 1/Lab 1/Signal Diode.csv

#Digilent WaveForms Oscilloscope Acquisition
#Device Name: Discovery2
#Serial Number: SN:210321A41F6B
#Date Time: 2024-01-30 16:38:08.289
#Sample rate: 4000Hz
#Samples: 8000
#Trigger: Source: Channel 1 Type: Edge Condition: Rising Level: 1.2 V Hyst.: Auto HoldOff: 0 s
#Channel 1: Range: 1 V/div Offset: 50 mV Attenuation: 1 X Sample Mode: Average
#Channel 2: Range: 1 V/div Offset: 0 V Attenuation: 1 X Sample Mode: Average
#Math 1: Function: C2 * ( 0.0010067)

#Wavegen Channel 1: Running
#Mode: Simple
#Type: RampUp
#Frequency: 1 Hz
#Period: 1 s
#Amplitude: 5 V
#Offset: 0 V
#Symmetry: 100 %
#Phase: 0 °

Time (s),Channel 1 (V),Channel 2 (V),Math 1 (A)
-1,0.6530466276413347,2.755961994953421,-1.700494676763491e-06
-0.99975,0.6530466276413347,2.759629084278079,1.991164146369983e-06
-0.9995000000000001,0.6530466276413347,2.763296173602737,-1.700494676763491e-06
-0.99925,0.656697609201866,2.766963262927395,-1.700494676763491e-06
-0.999,0.6530466276413347,2.766963262927395,1.991164146369983e-06
-0.99875,0.6530466276413347,2.770630352252054,1.991164146369983e-06
-0.9985000000000001,0.656697609201866,2.774297441576712,-1.700494676763491e-06
-0.99825,0.656697609201866,2.774297441576712,1.991164146369983e-06
-0.998,0.6530466276413347,2.77796453090137,1.991164146369983e-06
-0.99775,0.6530466276413347,2.781631620226029,1.991164146369983e-06
-0.9975000000000001,0.656697609201866,2.785298709550687,1.991164146369983e-06
-0.99725,0.6530466276413347,2.785298709550687,1.991164146369983e-06
-0.997,0.6530466276413347,2.788965798875345,1.991164146369983e-06
-0.99675,0.6530466276413347,2.792632888200004,1.991164146369983e-06
-0.9965000000000001,0.656697609201866,2.792632888200004,1.991164146369983e-06
-0.99625,0.6530466276413347,2.796299977524662,1.991164146369983e-06
-0.996,0.6530466276413347,2.796299977524662,1.991164146369983e-06
-0.99575,0.6530466276413347,2.79996706684932,1.991164146369983e-06
-0.9955000000000001,0.6530466276413347,2.803634156173978,-1.700494676763491e-06
-0.99525,0.6530466276413347,2.803634156173978,-1.700494676763491e-06
-0.995,0.656697609201866,2.807301245498636,-1.700494676763491e-06
-0.99475,0.656697609201866,2.810968334823295,1.991164146369983e-06
-0.9945000000000001,0.6530466276413347,2.810968334823295,1.991164146369983e-06
-0.99425,0.656697609201866,2.814635424147953,1.991164146369983e-06
-0.994,0.6530466276413347,2.818302513472611,1.991164146369983e-06
-0.99375,0.656697609201866,2.82196960279727,1.991164146369983e-06
-0.9935,0.656697609201866,2.82196960279727,-1.700494676763491e-06
-0.99325,0.656697609201866,2.825636692121928,-1.700494676763491e-06
-0.993,0.656697609201866,2.829303781446586,-1.700494676763491e-06
-0.99275,0.6530466276413347,2.829303781446586,1.991164146369983e-06
-0.9925,0.6530466276413347,2.832970870771244,1.991164146369983e-06
-0.99225,0.6530466276413347,2.836637960095902,-1.700494676763491e-06
-0.992,0.656697609201866,2.836637960095902,-1.700494676763491e-06
-0.99175,0.656697609201866,2.840305049420561,-1.700494676763491e-06
-0.9915,0.656697609201866,2.840305049420561,-1.700494676763491e-06
-0.99125,0.656697609201866,2.843972138745219,-1.700494676763491e-06
-0.991,0.656697609201866,2.847639228069877,-1.700494676763491e-06
-0.99075,0.656697609201866,2.851306317394536,-1.700494676763491e-06
-0.9905,0.656697609201866,2.851306317394536,1.991164146369983e-06
-0.99025,0.6530466276413347,2.854973406719194,1.991164146369983e-06
-0.99,0.656697609201866,2.858640496043852,1.991164146369983e-06
-0.98975,0.656697609201866,2.858640496043852,-1.700494676763491e-06
-0.9895,0.6530466276413347,2.86230758536851,-1.700494676763491e-06
-0.98925,0.656697609201866,2.865974674693168,1.991164146369983e-06
-0.989,0.656697609201866,2.865974674693168,-1.700494676763491e-06
-0.98875,0.656697609201866,2.869641764017827,-1.700494676763491e-06
-0.9885,0.656697609201866,2.873308853342485,-1.700494676763491e-06
-0.98825,0.656697609201866,2.873308853342485,1.991164146369983e-06
-0.988,0.656697609201866,2.876975942667143,-1.700494676763491e-06
-0.98775,0.656697609201866,2.880643031991802,-1.700494676763491e-06
-0.9875,0.6530466276413347,2.88431012131646,-1.700494676763491e-06
-0.98725,0.656697609201866,2.88431012131646,-1.700494676763491e-06
-0.987,0.656697609201866,2.887977210641118,-1.700494676763491e-06
-0.98675,0.656697609201866,2.887977210641118,-1.700494676763491e-06
-0.9865,0.656697609201866,2.891644299965777,1.991164146369983e-06
-0.98625,0.656697609201866,2.895311389290435,-1.700494676763491e-06
-0.986,0.656697609201866,2.898978478615093,1.991164146369983e-06
-0.98575,0.656697609201866,2.898978478615093,1.991164146369983e-06
-0.9855,0.656697609201866,2.902645567939751,1.991164146369983e-06
-0.98525,0.656697609201866,2.902645567939751,1.991164146369983e-06
-0.985,0.656697609201866,2.906312657264409,1.991164146369983e-06
-0.98475,0.656697609201866,2.909979746589068,1.991164146369983e-06
-0.9845,0.656697609201866,2.913646835913726,1.991164146369983e-06
-0.98425,0.656697609201866,2.917313925238384,-1.700494676763491e-06
-0.984,0.656697609201866,2.917313925238384,-1.700494676763491e-06
-0.98375,0.656697609201866,2.917313925238384,-1.700494676763491e-06
-0.9835,0.656697609201866,2.920981014563043,1.991164146369983e-06
-0.98325,0.656697609201866,2.924648103887701,1.991164146369983e-06
-0.983,0.656697609201866,2.924648103887701,1.991164146369983e-06
-0.98275,0.656697609201866,2.928315193212359,1.991164146369983e-06
-0.9825,0.656697609201866,2.931982282537017,1.991164146369983e-06
-0.98225,0.656697609201866,2.931982282537017,1.991164146369983e-06
-0.982,0.656697609201866,2.935649371861676,1.991164146369983e-06
-0.98175,0.656697609201866,2.935649371861676,1.991164146369983e-06
-0.9815,0.656697609201866,2.939316461186334,1.991164146369983e-06
-0.98125,0.656697609201866,2.942983550510992,1.991164146369983e-06
-0.981,0.656697609201866,2.942983550510992,1.991164146369983e-06
-0.98075,0.656697609201866,2.94665063983565,1.991164146369983e-06
-0.9805,0.656697609201866,2.94665063983565,1.991164146369983e-06
-0.98025,0.656697609201866,2.950317729160309,1.991164146369983e-06
-0.98,0.656697609201866,2.953984818484967,1.991164146369983e-06
-0.97975,0.656697609201866,2.953984818484967,1.991164146369983e-06
-0.9795,0.656697609201866,2.957651907809625,-1.700494676763491e-06
-0.97925,0.656697609201866,2.961318997134283,1.991164146369983e-06
-0.979,0.656697609201866,2.961318997134283,1.991164146369983e-06
-0.97875,0.656697609201866,2.964986086458942,1.991164146369983e-06
-0.9785,0.656697609201866,2.964986086458942,1.991164146369983e-06
-0.97825,0.656697609201866,2.9686531757836,1.991164146369983e-06
-0.978,0.656697609201866,2.9686531757836,1.991164146369983e-06
-0.97775,0.656697609201866,2.972320265108258,-1.700494676763491e-06
-0.9775,0.656697609201866,2.975987354432917,-1.700494676763491e-06
-0.97725,0.656697609201866,2.975987354432917,-1.700494676763491e-06
-0.977,0.656697609201866,2.979654443757575,-1.700494676763491e-06
-0.97675,0.656697609201866,2.983321533082233,-1.700494676763491e-06
-0.9765,0.656697609201866,2.986988622406892,1.991164146369983e-06
-0.97625,0.656697609201866,2.986988622406892,-1.700494676763491e-06
-0.976,0.656697609201866,2.99065571173155,1.991164146369983e-06
-0.97575,0.656697609201866,2.99065571173155,1.991164146369983e-06
-0.9755,0.656697609201866,2.994322801056208,1.991164146369983e-06
-0.97525,0.656697609201866,2.997989890380866,1.991164146369983e-06
-0.975,0.656697609201866,3.001656979705524,1.991164146369983e-06
-0.97475,0.656697609201866,3.001656979705524,1.991164146369983e-06
-0.9745,0.656697609201866,3.005324069030183,-1.700494676763491e-06
-0.9742499999999999,0.656697609201866,3.008991158354841,1.991164146369983e-06
-0.974,0.656697609201866,3.008991158354841,1.991164146369983e-06
-0.97375,0.656697609201866,3.012658247679499,1.991164146369983e-06
-0.9735,0.656697609201866,3.012658247679499,1.991164146369983e-06
-0.9732499999999999,0.656697609201866,3.016325337004158,-1.700494676763491e-06
-0.973,0.656697609201866,3.019992426328816,-1.700494676763491e-06
-0.97275,0.656697609201866,3.023659515653474,-1.700494676763491e-06
-0.9725,0.656697609201866,3.023659515653474,-1.700494676763491e-06
-0.9722499999999999,0.656697609201866,3.027326604978132,-1.700494676763491e-06
-0.972,0.6603485907623974,3.03099369430279,-1.700494676763491e-06
-0.97175,0.6603485907623974,3.03099369430279,1.991164146369983e-06
-0.9715,0.656697609201866,3.034660783627449,-1.700494676763491e-06
-0.9712499999999999,0.6603485907623974,3.038327872952107,-1.700494676763491e-06
-0.971,0.6603485907623974,3.038327872952107,1.991164146369983e-06
-0.97075,0.6603485907623974,3.041994962276765,1.991164146369983e-06
-0.9705,0.656697609201866,3.045662051601424,-1.700494676763491e-06
-0.9702499999999999,0.6603485907623974,3.049329140926082,-1.700494676763491e-06
-0.97,0.6603485907623974,3.05299623025074,1.991164146369983e-06
-0.96975,0.656697609201866,3.05299623025074,1.991164146369983e-06
-0.9695,0.6603485907623974,3.05299623025074,1.991164146369983e-06
-0.9692499999999999,0.6603485907623974,3.056663319575398,1.991164146369983e-06
-0.969,0.6603485907623974,3.056663319575398,-1.700494676763491e-06
-0.96875,0.6603485907623974,3.063997498224715,-1.700494676763491e-06
-0.9685,0.6603485907623974,3.063997498224715,-1.700494676763491e-06
-0.9682500000000001,0.6603485907623974,3.067664587549373,-1.700494676763491e-06
-0.968,0.6603485907623974,3.071331676874031,-1.700494676763491e-06
-0.96775,0.6603485907623974,3.071331676874031,1.991164146369983e-06
-0.9675,0.6603485907623974,3.07499876619869,-1.700494676763491e-06
-0.9672500000000001,0.6603485907623974,3.07499876619869,1.991164146369983e-06
-0.967,0.6603485907623974,3.078665855523348,1.991164146369983e-06
-0.96675,0.6603485907623974,3.082332944848006,-1.700494676763491e-06
-0.9665,0.6603485907623974,3.086000034172665,-1.700494676763491e-06
-0.9662500000000001,0.6603485907623974,3.089667123497323,-1.700494676763491e-06
-0.966,0.6603485907623974,3.089667123497323,-1.700494676763491e-06
-0.96575,0.6603485907623974,3.093334212821981,1.991164146369983e-06
-0.9655,0.6603485907623974,3.093334212821981,1.991164146369983e-06
-0.9652500000000001,0.6603485907623974,3.097001302146639,1.991164146369983e-06
-0.965,0.6603485907623974,3.100668391471297,1.991164146369983e-06
-0.96475,0.6603485907623974,3.100668391471297,1.991164146369983e-06
-0.9645,0.6603485907623974,3.104335480795956,-1.700494676763491e-06
-0.9642500000000001,0.6603485907623974,3.104335480795956,-1.700494676763491e-06
-0.964,0.6603485907623974,3.108002570120614,-1.700494676763491e-06
-0.96375,0.6603485907623974,3.111669659445272,-1.700494676763491e-06
-0.9635,0.6603485907623974,3.115336748769931,-1.700494676763491e-06
-0.9632500000000001,0.6603485907623974,3.119003838094589,1.991164146369983e-06
-0.963,0.6603485907623974,3.119003838094589,1.991164146369983e-06
-0.96275,0.6603485907623974,3.122670927419247,-1.700494676763491e-06
-0.9625,0.6603485907623974,3.126338016743905,-1.700494676763491e-06
-0.96225,0.6603485907623974,3.126338016743905,1.991164146369983e-06
-0.962,0.6603485907623974,3.130005106068563,-1.700494676763491e-06
-0.96175,0.6603485907623974,3.133672195393222,1.991164146369983e-06
-0.9615,0.6603485907623974,3.13733928471788,1.991164146369983e-06
-0.96125,0.6603485907623974,3.141006374042538,1.991164146369983e-06
-0.961,0.6603485907623974,3.141006374042538,1.991164146369983e-06
-0.96075,0.6603485907623974,3.144673463367197,1.991164146369983e-06
-0.9605,0.6603485907623974,3.148340552691855,1.991164146369983e-06
-0.96025,0.6603485907623974,3.148340552691855,1.991164146369983e-06
-0.96,0.6603485907623974,3.152007642016513,1.991164146369983e-06
-0.95975,0.6603485907623974,3.152007642016513,-1.700494676763491e-06
-0.9595,0.6603485907623974,3.155674731341171,-1.700494676763491e-06
-0.95925,0.6603485907623974,3.15934182066583,1.991164146369983e-06
-0.959,0.6603485907623974,3.15934182066583,-1.700494676763491e-06
-0.95875,0.6603485907623974,3.163008909990488,1.991164146369983e-06
-0.9585,0.6603485907623974,3.166675999315146,1.991164146369983e-06
-0.95825,0.6603485907623974,3.170343088639804,1.991164146369983e-06
-0.958,0.6603485907623974,3.170343088639804,-1.700494676763491e-06
-0.95775,0.6639995723229287,3.174010177964463,-1.700494676763491e-06
-0.9575,0.6603485907623974,3.174010177964463,-1.700494676763491e-06
-0.95725,0.6603485907623974,3.177677267289121,1.991164146369983e-06
-0.957,0.6603485907623974,3.177677267289121,-1.700494676763491e-06
-0.95675,0.6603485907623974,3.181344356613779,1.991164146369983e-06
-0.9565,0.6639995723229287,3.185011445938438,1.991164146369983e-06
-0.95625,0.6603485907623974,3.185011445938438,1.991164146369983e-06
-0.956,0.6603485907623974,3.188678535263096,-1.700494676763491e-06
-0.95575,0.6603485907623974,3.192345624587754,1.991164146369983e-06
-0.9555,0.6603485907623974,3.192345624587754,1.991164146369983e-06
-0.95525,0.6639995723229287,3.196012713912412,1.991164146369983e-06
-0.955,0.6639995723229287,3.199679803237071,1.991164146369983e-06
-0.95475,0.6603485907623974,3.199679803237071,-1.700494676763491e-06
-0.9545,0.6603485907623974,3.203346892561729,-1.700494676763491e-06
-0.95425,0.6603485907623974,3.207013981886387,1.991164146369983e-06
-0.954,0.6639995723229287,3.207013981886387,-1.700494676763491e-06
-0.95375,0.6603485907623974,3.210681071211045,1.991164146369983e-06
-0.9535,0.6603485907623974,3.214348160535704,1.991164146369983e-06
-0.95325,0.6603485907623974,3.214348160535704,1.991164146369983e-06
-0.953,0.6603485907623974,3.218015249860362,1.991164146369983e-06
-0.95275,0.6603485907623974,3.22168233918502,1.991164146369983e-06
-0.9525,0.6603485907623974,3.225349428509678,1.991164146369983e-06
-0.95225,0.6639995723229287,3.229016517834337,1.991164146369983e-06
-0.952,0.6603485907623974,3.229016517834337,1.991164146369983e-06
-0.95175,0.6639995723229287,3.232683607158995,1.991164146369983e-06
-0.9515,0.6639995723229287,3.232683607158995,1.991164146369983e-06
-0.95125,0.6639995723229287,3.236350696483653,1.991164146369983e-06
-0.951,0.6639995723229287,3.236350696483653,1.991164146369983e-06
-0.95075,0.6639995723229287,3.240017785808312,1.991164146369983e-06
-0.9505,0.6603485907623974,3.24368487513297,1.991164146369983e-06
-0.95025,0.6639995723229287,3.247351964457628,1.991164146369983e-06
-0.95,0.6639995723229287,3.247351964457628,1.991164146369983e-06
-0.94975,0.6639995723229287,3.251019053782287,1.991164146369983e-06
-0.9495,0.6603485907623974,3.251019053782287,1.991164146369983e-06
-0.94925,0.6639995723229287,3.258353232431603,1.991164146369983e-06
-0.949,0.6639995723229287,3.258353232431603,1.991164146369983e-06
-0.94875,0.6639995723229287,3.262020321756261,-1.700494676763491e-06
-0.9485,0.6639995723229287,3.262020321756261,1.991164146369983e-06
-0.94825,0.6639995723229287,3.265687411080919,1.991164146369983e-06
-0.948,0.6639995723229287,3.269354500405578,1.991164146369983e-06
-0.94775,0.6639995723229287,3.273021589730236,-1.700494676763491e-06
-0.9475,0.6639995723229287,3.273021589730236,1.991164146369983e-06
-0.94725,0.6639995723229287,3.276688679054894,1.991164146369983e-06
-0.947,0.6639995723229287,3.280355768379553,1.991164146369983e-06
-0.94675,0.6639995723229287,3.280355768379553,1.991164146369983e-06
-0.9465,0.6639995723229287,3.284022857704211,-1.700494676763491e-06
-0.94625,0.6639995723229287,3.284022857704211,1.991164146369983e-06
-0.946,0.6639995723229287,3.287689947028869,1.991164146369983e-06
-0.94575,0.6639995723229287,3.291357036353527,-1.700494676763491e-06
-0.9455,0.6639995723229287,3.295024125678185,1.991164146369983e-06
-0.94525,0.6639995723229287,3.295024125678185,1.991164146369983e-06
-0.945,0.6639995723229287,3.298691215002844,1.991164146369983e-06
-0.94475,0.6639995723229287,3.302358304327502,1.991164146369983e-06
-0.9445,0.6639995723229287,3.302358304327502,1.991164146369983e-06
-0.94425,0.6639995723229287,3.30602539365216,1.991164146369983e-06
-0.944,0.6639995723229287,3.309692482976819,1.991164146369983e-06
-0.94375,0.6639995723229287,3.313359572301477,1.991164146369983e-06
-0.9435,0.6639995723229287,3.313359572301477,1.991164146369983e-06
-0.94325,0.6639995723229287,3.317026661626135,1.991164146369983e-06
-0.9429999999999999,0.6639995723229287,3.317026661626135,1.991164146369983e-06
-0.94275,0.6639995723229287,3.320693750950793,1.991164146369983e-06
-0.9425,0.6639995723229287,3.324360840275451,1.991164146369983e-06
-0.94225,0.6639995723229287,3.324360840275451,1.991164146369983e-06
-0.9419999999999999,0.6639995723229287,3.32802792960011,1.991164146369983e-06
-0.94175,0.6639995723229287,3.331695018924768,1.991164146369983e-06
-0.9415,0.6639995723229287,3.335362108249426,1.991164146369983e-06
-0.94125,0.6639995723229287,3.335362108249426,-1.700494676763491e-06
-0.9409999999999999,0.6639995723229287,3.339029197574085,-1.700494676763491e-06
-0.94075,0.6639995723229287,3.342696286898743,1.991164146369983e-06
-0.9405,0.6639995723229287,3.346363376223401,-1.700494676763491e-06
-0.94025,0.6639995723229287,3.346363376223401,1.991164146369983e-06
-0.9399999999999999,0.6639995723229287,3.350030465548059,1.991164146369983e-06
-0.93975,0.6639995723229287,3.350030465548059,-1.700494676763491e-06
-0.9395,0.6639995723229287,3.353697554872717,1.991164146369983e-06
-0.93925,0.6639995723229287,3.357364644197376,-1.700494676763491e-06
-0.9389999999999999,0.6639995723229287,3.357364644197376,-1.700494676763491e-06
-0.93875,0.6639995723229287,3.361031733522034,-1.700494676763491e-06
-0.9385,0.6639995723229287,3.364698822846692,1.991164146369983e-06
-0.93825,0.6639995723229287,3.364698822846692,1.991164146369983e-06
-0.9379999999999999,0.6639995723229287,3.368365912171351,1.991164146369983e-06
-0.93775,0.6639995723229287,3.372033001496009,1.991164146369983e-06
-0.9375,0.6639995723229287,3.372033001496009,1.991164146369983e-06
-0.93725,0.6639995723229287,3.375700090820667,1.991164146369983e-06
-0.9370000000000001,0.6639995723229287,3.379367180145326,1.991164146369983e-06
-0.93675,0.6639995723229287,3.379367180145326,1.991164146369983e-06
-0.9365,0.6639995723229287,3.383034269469984,1.991164146369983e-06
-0.93625,0.6639995723229287,3.386701358794642,1.991164146369983e-06
-0.9360000000000001,0.6639995723229287,3.386701358794642,1.991164146369983e-06
-0.93575,0.6639995723229287,3.3903684481193,1.991164146369983e-06
-0.9355,0.6639995723229287,3.3903684481193,1.991164146369983e-06
-0.93525,0.6639995723229287,3.394035537443958,-1.700494676763491e-06
-0.9350000000000001,0.6639995723229287,3.397702626768617,1.991164146369983e-06
-0.93475,0.6639995723229287,3.401369716093275,1.991164146369983e-06
-0.9345,0.6639995723229287,3.401369716093275,1.991164146369983e-06
-0.93425,0.6639995723229287,3.405036805417933,1.991164146369983e-06
-0.9340000000000001,0.6639995723229287,3.408703894742592,1.991164146369983e-06
-0.93375,0.6639995723229287,3.408703894742592,1.991164146369983e-06
-0.9335,0.6639995723229287,3.41237098406725,1.991164146369983e-06
-0.93325,0.6639995723229287,3.416038073391908,1.991164146369983e-06
-0.9330000000000001,0.6639995723229287,3.41237098406725,1.991164146369983e-06
-0.93275,0.6639995723229287,3.416038073391908,1.991164146369983e-06
-0.9325,0.6639995723229287,3.419705162716566,1.991164146369983e-06
-0.93225,0.6639995723229287,3.423372252041225,1.991164146369983e-06
-0.9320000000000001,0.6639995723229287,3.423372252041225,1.991164146369983e-06
-0.93175,0.6639995723229287,3.427039341365883,1.991164146369983e-06
-0.9315,0.6639995723229287,3.430706430690541,1.991164146369983e-06
-0.93125,0.6639995723229287,3.430706430690541,1.991164146369983e-06
-0.931,0.6676505538834601,3.434373520015199,1.991164146369983e-06
-0.93075,0.6639995723229287,3.438040609339858,1.991164146369983e-06
-0.9305,0.6639995723229287,3.438040609339858,1.991164146369983e-06
-0.93025,0.6639995723229287,3.441707698664516,1.991164146369983e-06
-0.93,0.6639995723229287,3.445374787989174,-1.700494676763491e-06
-0.92975,0.6639995723229287,3.445374787989174,1.991164146369983e-06
