Physics/Experimental 1/Lab 1/Z Diode.csv

#Digilent WaveForms Oscilloscope Acquisition,,,
#Device Name: Discovery2,,,
#Serial Number: SN:210321A41F6B,,,
#Date Time: 2024-01-30 16:41:02.182,,,
#Sample rate: 4000Hz,,,
#Samples: 8000,,,
#Trigger: Source: Channel 1 Type: Edge Condition: Rising Level: 1.2 V Hyst.: Auto HoldOff: 0 s,,,
#Channel 1: Range: 1 V/div Offset: 50 mV Attenuation: 1 X Sample Mode: Average,,,
#Channel 2: Range: 1 V/div Offset: 0 V Attenuation: 1 X Sample Mode: Average,,,
#Math 1: Function: C2 * ( 0.0010067),,,
,,,
#Wavegen Channel 1: Running,,,
#Mode: Simple,,,
#Type: RampUp,,,
#Frequency: 1 Hz,,,
#Period: 1 s,,,
#Amplitude: 5 V,,,
#Offset: 0 V,,,
#Symmetry: 100 %,,,
#Phase: 0 °,,,
,,,
Time (s),Channel 1 (V),Channel 2 (V),Math 1 (A)
0.00275,-2.636487758,-2.414633953,-0.000518533
0.003,-2.632836777,-2.410966863,-0.000518533
0.00325,-2.632836777,-2.407299774,-0.000514841
0.0035,-2.632836777,-2.407299774,-0.000514841
0.00375,-2.632836777,-2.403632685,-0.000511149
0.004,-2.632836777,-2.399965596,-0.000511149
0.00425,-2.632836777,-2.399965596,-0.000511149
0.0045,-2.632836777,-2.399965596,-0.000507458
0.00475,-2.632836777,-2.396298506,-0.000507458
0.005,-2.629185795,-2.392631417,-0.000503766
0.00525,-2.629185795,-2.388964328,-0.000503766
0.0055,-2.629185795,-2.388964328,-0.000500074
0.00575,-2.629185795,-2.388964328,-0.000500074
0.006,-2.629185795,-2.385297238,-0.000496383
0.00625,-2.629185795,-2.381630149,-0.000496383
0.0065,-2.629185795,-2.381630149,-0.000496383
0.00675,-2.629185795,-2.37796306,-0.000496383
0.007,-2.625534814,-2.37429597,-0.000492691
0.00725,-2.629185795,-2.370628881,-0.000492691
0.0075,-2.629185795,-2.370628881,-0.000488999
0.00775,-2.625534814,-2.366961792,-0.000488999
0.008,-2.625534814,-2.366961792,-0.000485308
0.00825,-2.625534814,-2.363294702,-0.000485308
0.0085,-2.625534814,-2.363294702,-0.000481616
0.00875,-2.625534814,-2.359627613,-0.000481616
0.009,-2.625534814,-2.355960524,-0.000481616
0.00925,-2.625534814,-2.355960524,-0.000477924
0.0095,-2.625534814,-2.352293434,-0.000477924
0.00975,-2.625534814,-2.348626345,-0.000474233
0.01,-2.621883832,-2.348626345,-0.000474233
0.01025,-2.621883832,-2.344959256,-0.000470541
0.0105,-2.621883832,-2.341292166,-0.000470541
0.01075,-2.621883832,-2.341292166,-0.00046685
0.011,-2.621883832,-2.341292166,-0.00046685
0.01125,-2.621883832,-2.337625077,-0.00046685
0.0115,-2.621883832,-2.333957988,-0.000463158
0.01175,-2.621883832,-2.333957988,-0.000463158
0.012,-2.621883832,-2.330290898,-0.000459466
0.01225,-2.621883832,-2.330290898,-0.000459466
0.0125,-2.621883832,-2.330290898,-0.000459466
0.01275,-2.621883832,-2.326623809,-0.000455775
0.013,-2.618232851,-2.326623809,-0.000452083
0.01325,-2.618232851,-2.32295672,-0.000452083
0.0135,-2.618232851,-2.31928963,-0.000452083
0.01375,-2.618232851,-2.31928963,-0.000448391
0.014,-2.618232851,-2.315622541,-0.000448391
0.01425,-2.618232851,-2.311955452,-0.000448391
0.0145,-2.618232851,-2.311955452,-0.0004447
0.01475,-2.618232851,-2.308288362,-0.000441008
0.015,-2.618232851,-2.308288362,-0.000441008
0.01525,-2.618232851,-2.304621273,-0.000441008
0.0155,-2.618232851,-2.304621273,-0.000437316
0.01575,-2.618232851,-2.300954184,-0.000437316
0.016,-2.618232851,-2.297287094,-0.000433625
0.01625,-2.614581869,-2.297287094,-0.000433625
0.0165,-2.614581869,-2.293620005,-0.000433625
0.01675,-2.614581869,-2.289952916,-0.000429933
0.017,-2.614581869,-2.289952916,-0.000429933
0.01725,-2.614581869,-2.286285826,-0.000429933
0.0175,-2.614581869,-2.286285826,-0.000426241
0.01775,-2.614581869,-2.282618737,-0.000426241
0.018,-2.614581869,-2.278951648,-0.00042255
0.01825,-2.614581869,-2.278951648,-0.00042255
0.0185,-2.614581869,-2.275284558,-0.000418858
0.01875,-2.614581869,-2.275284558,-0.000415166
0.019,-2.610930887,-2.271617469,-0.000415166
0.01925,-2.614581869,-2.271617469,-0.000415166
0.0195,-2.614581869,-2.26795038,-0.000415166
0.01975,-2.610930887,-2.264283291,-0.000411475
0.02,-2.610930887,-2.260616201,-0.000411475
0.02025,-2.610930887,-2.260616201,-0.000407783
0.0205,-2.610930887,-2.260616201,-0.000407783
0.02075,-2.610930887,-2.256949112,-0.000404091
0.021,-2.610930887,-2.253282023,-0.000404091
0.02125,-2.610930887,-2.253282023,-0.0004004
0.0215,-2.607279906,-2.249614933,-0.0004004
0.02175,-2.607279906,-2.245947844,-0.0004004
0.022,-2.607279906,-2.242280755,-0.000396708
0.02225,-2.607279906,-2.242280755,-0.000396708
0.0225,-2.607279906,-2.242280755,-0.000396708
0.02275,-2.607279906,-2.238613665,-0.000393016
0.023,-2.607279906,-2.234946576,-0.000393016
0.02325,-2.607279906,-2.234946576,-0.000389325
0.0235,-2.607279906,-2.231279487,-0.000389325
0.02375,-2.607279906,-2.231279487,-0.000385633
0.024,-2.603628924,-2.227612397,-0.000385633
0.02425,-2.603628924,-2.223945308,-0.000385633
0.0245,-2.603628924,-2.223945308,-0.000381941
0.02475,-2.603628924,-2.220278219,-0.000381941
0.025,-2.603628924,-2.216611129,-0.00037825
0.02525,-2.603628924,-2.216611129,-0.00037825
0.0255,-2.603628924,-2.21294404,-0.000374558
0.02575,-2.603628924,-2.21294404,-0.000374558
0.026,-2.603628924,-2.209276951,-0.000374558
0.02625,-2.603628924,-2.209276951,-0.000370866
0.0265,-2.603628924,-2.205609861,-0.000370866
0.02675,-2.603628924,-2.205609861,-0.000370866
0.027,-2.603628924,-2.201942772,-0.000367175
0.02725,-2.599977943,-2.201942772,-0.000367175
0.0275,-2.599977943,-2.198275683,-0.000363483
0.02775,-2.599977943,-2.198275683,-0.000363483
0.028,-2.599977943,-2.194608593,-0.000359791
0.02825,-2.599977943,-2.190941504,-0.000359791
0.0285,-2.599977943,-2.190941504,-0.000359791
0.02875,-2.599977943,-2.190941504,-0.0003561
0.029,-2.599977943,-2.187274415,-0.0003561
0.02925,-2.599977943,-2.187274415,-0.000352408
0.0295,-2.596326961,-2.183607325,-0.000352408
0.02975,-2.599977943,-2.179940236,-0.000352408
0.03,-2.596326961,-2.176273147,-0.000348716
0.03025,-2.596326961,-2.176273147,-0.000348716
0.0305,-2.596326961,-2.172606057,-0.000348716
0.03075,-2.596326961,-2.172606057,-0.000345025
0.031,-2.596326961,-2.168938968,-0.000345025
0.03125,-2.596326961,-2.165271879,-0.000345025
0.0315,-2.596326961,-2.165271879,-0.000345025
0.03175,-2.596326961,-2.161604789,-0.000341333
0.032,-2.596326961,-2.1579377,-0.000341333
0.03225,-2.596326961,-2.1579377,-0.000337641
0.0325,-2.59267598,-2.154270611,-0.000337641
0.03275,-2.596326961,-2.154270611,-0.000337641
0.033,-2.59267598,-2.150603521,-0.00033395
0.03325,-2.59267598,-2.150603521,-0.00033395
0.0335,-2.59267598,-2.146936432,-0.00033395
0.03375,-2.59267598,-2.143269343,-0.000330258
0.034,-2.59267598,-2.143269343,-0.000330258
0.03425,-2.59267598,-2.139602253,-0.000330258
0.0345,-2.59267598,-2.135935164,-0.000326566
0.03475,-2.59267598,-2.135935164,-0.000326566
0.035,-2.59267598,-2.135935164,-0.000322875
0.03525,-2.59267598,-2.132268075,-0.000322875
0.0355,-2.59267598,-2.128600985,-0.000322875
0.03575,-2.59267598,-2.128600985,-0.000322875
0.036,-2.589024998,-2.124933896,-0.000319183
0.03625,-2.589024998,-2.121266807,-0.000319183
0.0365,-2.589024998,-2.117599718,-0.000319183
0.03675,-2.589024998,-2.117599718,-0.000315491
0.037,-2.589024998,-2.113932628,-0.000315491
0.03725,-2.589024998,-2.113932628,-0.0003118
0.0375,-2.585374017,-2.110265539,-0.0003118
0.03775,-2.589024998,-2.110265539,-0.0003118
0.038,-2.585374017,-2.10659845,-0.000308108
0.03825,-2.585374017,-2.10293136,-0.000308108
0.0385,-2.585374017,-2.10293136,-0.000308108
0.03875,-2.585374017,-2.099264271,-0.000304417
0.039,-2.585374017,-2.099264271,-0.000304417
0.03925,-2.585374017,-2.095597182,-0.000304417
0.0395,-2.585374017,-2.091930092,-0.000300725
0.03975,-2.585374017,-2.091930092,-0.000300725
0.04,-2.585374017,-2.088263003,-0.000297033
0.04025,-2.585374017,-2.088263003,-0.000297033
0.0405,-2.585374017,-2.084595914,-0.000293342
0.04075,-2.581723035,-2.080928824,-0.000293342
0.041,-2.585374017,-2.080928824,-0.000293342
0.04125,-2.581723035,-2.077261735,-0.000293342
0.0415,-2.581723035,-2.073594646,-0.00028965
0.04175,-2.581723035,-2.073594646,-0.00028965
0.042,-2.581723035,-2.069927556,-0.000285958
0.04225,-2.581723035,-2.069927556,-0.000285958
0.0425,-2.581723035,-2.066260467,-0.000285958
0.04275,-2.581723035,-2.062593378,-0.000282267
0.043,-2.581723035,-2.062593378,-0.000282267
0.04325,-2.581723035,-2.058926288,-0.000278575
0.0435,-2.578072053,-2.055259199,-0.000278575
0.04375,-2.578072053,-2.055259199,-0.000274883
0.044,-2.578072053,-2.055259199,-0.000274883
0.04425,-2.578072053,-2.05159211,-0.000274883
0.0445,-2.578072053,-2.04792502,-0.000271192
0.04475,-2.578072053,-2.04792502,-0.000274883
0.045,-2.578072053,-2.044257931,-0.000271192
0.04525,-2.578072053,-2.044257931,-0.000271192
0.0455,-2.578072053,-2.040590842,-0.0002675
0.04575,-2.578072053,-2.036923752,-0.0002675
0.046,-2.578072053,-2.033256663,-0.000263808
0.04625,-2.578072053,-2.033256663,-0.000263808
0.0465,-2.574421072,-2.029589574,-0.000260117
0.04675,-2.574421072,-2.029589574,-0.000260117
0.047,-2.574421072,-2.029589574,-0.000260117
0.04725,-2.574421072,-2.025922484,-0.000256425
0.0475,-2.574421072,-2.022255395,-0.000256425
0.04775,-2.574421072,-2.022255395,-0.000256425
0.048,-2.574421072,-2.018588306,-0.000252733
0.04825,-2.574421072,-2.014921216,-0.000252733
0.0485,-2.574421072,-2.011254127,-0.000252733
0.04875,-2.574421072,-2.011254127,-0.000249042
0.049,-2.57077009,-2.007587038,-0.000249042
0.04925,-2.57077009,-2.007587038,-0.000249042
0.0495,-2.57077009,-2.003919948,-0.00024535
0.04975,-2.57077009,-2.003919948,-0.00024535
0.05,-2.57077009,-2.000252859,-0.00024535
0.05025,-2.57077009,-1.99658577,-0.00024535
0.0505,-2.57077009,-1.99658577,-0.000241658
0.05075,-2.57077009,-1.99291868,-0.000241658
0.051,-2.57077009,-1.99291868,-0.000237967
0.05125,-2.57077009,-1.989251591,-0.000237967
0.0515,-2.567119109,-1.989251591,-0.000237967
0.05175,-2.567119109,-1.985584502,-0.000234275
0.052,-2.567119109,-1.985584502,-0.000234275
0.05225,-2.567119109,-1.981917413,-0.000234275
0.0525,-2.567119109,-1.981917413,-0.000230583
0.05275,-2.567119109,-1.978250323,-0.000230583
0.053,-2.563468127,-1.974583234,-0.000230583
0.05325,-2.567119109,-1.974583234,-0.000226892
0.0535,-2.567119109,-1.970916145,-0.000226892
0.05375,-2.563468127,-1.970916145,-0.000226892
0.054,-2.563468127,-1.967249055,-0.0002232
0.05425,-2.563468127,-1.967249055,-0.0002232
0.0545,-2.563468127,-1.963581966,-0.0002232
0.05475,-2.563468127,-1.959914877,-0.0002232
0.055,-2.563468127,-1.959914877,-0.000219508
0.05525,-2.563468127,-1.959914877,-0.000219508
0.0555,-2.563468127,-1.956247787,-0.000219508
0.05575,-2.563468127,-1.956247787,-0.000215817
0.056,-2.563468127,-1.952580698,-0.000215817
0.05625,-2.559817146,-1.952580698,-0.000212125
0.0565,-2.559817146,-1.948913609,-0.000212125
0.05675,-2.559817146,-1.945246519,-0.000212125
0.057,-2.559817146,-1.945246519,-0.000212125
0.05725,-2.559817146,-1.94157943,-0.000208433
0.0575,-2.559817146,-1.937912341,-0.000208433
0.05775,-2.559817146,-1.937912341,-0.000204742
0.058,-2.559817146,-1.934245251,-0.000204742
0.05825,-2.559817146,-1.934245251,-0.000204742
0.0585,-2.556166164,-1.930578162,-0.000204742
0.05875,-2.556166164,-1.926911073,-0.000204742
0.059,-2.556166164,-1.923243983,-0.00020105
0.05925,-2.556166164,-1.923243983,-0.00020105
0.0595,-2.556166164,-1.919576894,-0.00020105
0.05975,-2.556166164,-1.919576894,-0.000197358
0.06,-2.556166164,-1.915909805,-0.000197358
0.06025,-2.556166164,-1.915909805,-0.000193667
0.0605,-2.556166164,-1.912242715,-0.000193667
0.06075,-2.556166164,-1.912242715,-0.000193667
0.061,-2.552515183,-1.908575626,-0.000193667
0.06125,-2.556166164,-1.904908537,-0.000193667
0.0615,-2.552515183,-1.904908537,-0.000189975
0.06175,-2.552515183,-1.901241447,-0.000189975
0.062,-2.552515183,-1.901241447,-0.000186283
0.06225,-2.552515183,-1.897574358,-0.000186283
0.0625,-2.552515183,-1.897574358,-0.000186283
0.06275,-2.552515183,-1.893907269,-0.000186283
0.063,-2.552515183,-1.890240179,-0.000182592
0.06325,-2.548864201,-1.890240179,-0.000182592
0.0635,-2.548864201,-1.88657309,-0.000182592
0.06375,-2.548864201,-1.882906001,-0.000182592
0.064,-2.548864201,-1.879238911,-0.0001789
0.06425,-2.548864201,-1.879238911,-0.0001789
0.0645,-2.548864201,-1.879238911,-0.0001789
0.06475,-2.548864201,-1.875571822,-0.000175208
0.065,-2.548864201,-1.871904733,-0.000175208
0.06525,-2.548864201,-1.871904733,-0.000175208
0.0655,-2.548864201,-1.868237643,-0.000175208
0.06575,-2.545213219,-1.864570554,-0.000171517
0.066,-2.545213219,-1.864570554,-0.000171517
0.06625,-2.545213219,-1.860903465,-0.000167825
0.0665,-2.545213219,-1.860903465,-0.000167825
0.06675,-2.545213219,-1.860903465,-0.000167825
0.067,-2.545213219,-1.857236375,-0.000167825
0.06725,-2.545213219,-1.853569286,-0.000164133
0.0675,-2.545213219,-1.849902197,-0.000164133
0.06775,-2.545213219,-1.849902197,-0.000164133
0.068,-2.545213219,-1.846235107,-0.000164133
0.06825,-2.541562238,-1.846235107,-0.000160442
0.0685,-2.541562238,-1.842568018,-0.000160442
0.06875,-2.541562238,-1.842568018,-0.000160442
0.069,-2.541562238,-1.838900929,-0.00015675
0.06925,-2.541562238,-1.838900929,-0.00015675
0.0695,-2.541562238,-1.83523384,-0.00015675
0.06975,-2.541562238,-1.83523384,-0.000153059
0.07,-2.541562238,-1.83156675,-0.000153059
0.07025,-2.541562238,-1.83156675,-0.000153059
0.0705,-2.541562238,-1.827899661,-0.000153059
0.07075,-2.537911256,-1.827899661,-0.000149367
0.071,-2.537911256,-1.824232572,-0.000149367
0.07125,-2.537911256,-1.820565482,-0.000149367
0.0715,-2.541562238,-1.820565482,-0.000145675
0.07175,-2.537911256,-1.816898393,-0.000145675
0.072,-2.537911256,-1.816898393,-0.000145675
0.07225,-2.537911256,-1.813231304,-0.000141984
0.0725,-2.537911256,-1.813231304,-0.000141984
0.07275,-2.537911256,-1.809564214,-0.000141984
0.073,-2.537911256,-1.805897125,-0.000141984
0.07325,-2.537911256,-1.805897125,-0.000138292
0.0735,-2.534260275,-1.802230036,-0.000138292
0.07375,-2.534260275,-1.802230036,-0.000138292
0.074,-2.534260275,-1.798562946,-0.000138292
0.07425,-2.534260275,-1.798562946,-0.0001346
0.0745,-2.534260275,-1.794895857,-0.0001346
0.07475,-2.534260275,-1.794895857,-0.0001346
0.075,-2.534260275,-1.791228768,-0.0001346
0.07525,-2.534260275,-1.787561678,-0.000130909
0.0755,-2.534260275,-1.783894589,-0.000130909
0.07575,-2.534260275,-1.783894589,-0.000130909
0.076,-2.534260275,-1.7802275,-0.000127217
0.07625,-2.530609293,-1.7802275,-0.000127217
0.0765,-2.530609293,-1.77656041,-0.000127217
0.07675,-2.530609293,-1.772893321,-0.000127217
0.077,-2.530609293,-1.772893321,-0.000127217
0.07725,-2.530609293,-1.769226232,-0.000127217
0.0775,-2.530609293,-1.765559142,-0.000123525
0.07775,-2.530609293,-1.765559142,-0.000123525
0.078,-2.530609293,-1.765559142,-0.000123525
0.07825,-2.530609293,-1.761892053,-0.000119834
0.0785,-2.526958312,-1.761892053,-0.000119834
0.07875,-2.526958312,-1.758224964,-0.000119834
0.079,-2.526958312,-1.754557874,-0.000119834
0.07925,-2.526958312,-1.754557874,-0.000116142
0.0795,-2.526958312,-1.750890785,-0.000116142
0.07975,-2.526958312,-1.750890785,-0.000116142
0.08,-2.526958312,-1.747223696,-0.000116142
0.08025,-2.526958312,-1.747223696,-0.000116142
0.0805,-2.52330733,-1.743556606,-0.00011245
0.08075,-2.52330733,-1.743556606,-0.00011245
0.081,-2.52330733,-1.739889517,-0.00011245
0.08125,-2.52330733,-1.736222428,-0.00011245
0.0815,-2.52330733,-1.736222428,-0.00011245
0.08175,-2.52330733,-1.732555338,-0.00011245
0.082,-2.52330733,-1.732555338,-0.000108759
0.08225,-2.52330733,-1.728888249,-0.000108759
0.0825,-2.52330733,-1.728888249,-0.000108759
0.08275,-2.52330733,-1.728888249,-0.000108759
0.083,-2.52330733,-1.72522116,-0.000105067
0.08325,-2.519656348,-1.72155407,-0.000105067
0.0835,-2.52330733,-1.72155407,-0.000105067
0.08375,-2.519656348,-1.717886981,-0.000105067
0.084,-2.519656348,-1.717886981,-0.000105067
0.08425,-2.519656348,-1.714219892,-0.000105067
0.0845,-2.519656348,-1.714219892,-0.000101375
0.08475,-2.519656348,-1.710552802,-0.000101375
0.085,-2.519656348,-1.706885713,-0.000101375
0.08525,-2.519656348,-1.706885713,-9.77E-05
0.0855,-2.519656348,-1.703218624,-9.77E-05
0.08575,-2.516005367,-1.703218624,-9.77E-05
0.086,-2.516005367,-1.699551535,-9.77E-05
0.08625,-2.516005367,-1.695884445,-9.77E-05
0.0865,-2.516005367,-1.695884445,-9.77E-05
0.08675,-2.516005367,-1.692217356,-9.77E-05
0.087,-2.516005367,-1.692217356,-9.40E-05
0.08725,-2.516005367,-1.688550267,-9.40E-05
0.0875,-2.516005367,-1.684883177,-9.40E-05
0.08775,-2.512354385,-1.684883177,-9.03E-05
0.088,-2.516005367,-1.681216088,-9.40E-05
0.08825,-2.512354385,-1.681216088,-9.03E-05
0.0885,-2.512354385,-1.677548999,-9.03E-05
0.08875,-2.512354385,-1.677548999,-9.03E-05
0.089,-2.512354385,-1.673881909,-8.66E-05
0.08925,-2.512354385,-1.673881909,-8.66E-05
0.0895,-2.512354385,-1.67021482,-8.66E-05
0.08975,-2.512354385,-1.666547731,-8.66E-05
0.09,-2.508703404,-1.662880641,-8.66E-05
0.09025,-2.508703404,-1.662880641,-8.66E-05
0.0905,-2.508703404,-1.659213552,-8.66E-05
0.09075,-2.508703404,-1.659213552,-8.29E-05
0.091,-2.508703404,-1.655546463,-8.29E-05
0.09125,-2.508703404,-1.655546463,-8.29E-05
0.0915,-2.508703404,-1.651879373,-8.29E-05
0.09175,-2.508703404,-1.651879373,-7.92E-05
0.092,-2.508703404,-1.648212284,-7.92E-05
0.09225,-2.508703404,-1.648212284,-7.92E-05
0.0925,-2.508703404,-1.644545195,-7.92E-05
0.09275,-2.505052422,-1.640878105,-7.55E-05
0.093,-2.505052422,-1.640878105,-7.55E-05
0.09325,-2.505052422,-1.637211016,-7.55E-05
0.0935,-2.505052422,-1.637211016,-7.55E-05
0.09375,-2.505052422,-1.633543927,-7.55E-05
0.094,-2.505052422,-1.629876837,-7.55E-05
0.09425,-2.505052422,-1.629876837,-7.55E-05
0.0945,-2.505052422,-1.626209748,-7.55E-05
0.09475,-2.505052422,-1.626209748,-7.55E-05
0.095,-2.505052422,-1.622542659,-7.55E-05
0.09525,-2.501401441,-1.618875569,-7.18E-05
0.0955,-2.501401441,-1.618875569,-7.18E-05
0.09575,-2.501401441,-1.61520848,-7.18E-05
0.096,-2.501401441,-1.61520848,-7.18E-05
0.09625,-2.501401441,-1.61520848,-7.18E-05
0.0965,-2.501401441,-1.611541391,-6.82E-05
0.09675,-2.501401441,-1.607874301,-6.82E-05
0.097,-2.497750459,-1.607874301,-6.82E-05
0.09725,-2.497750459,-1.604207212,-6.82E-05
0.0975,-2.497750459,-1.604207212,-6.82E-05
0.09775,-2.497750459,-1.600540123,-6.45E-05
0.098,-2.497750459,-1.596873033,-6.45E-05
0.09825,-2.497750459,-1.596873033,-6.45E-05
0.0985,-2.497750459,-1.593205944,-6.45E-05
0.09875,-2.497750459,-1.589538855,-6.45E-05
0.099,-2.497750459,-1.589538855,-6.08E-05
0.09925,-2.497750459,-1.585871765,-6.45E-05
0.0995,-2.497750459,-1.585871765,-6.08E-05
0.09975,-2.494099478,-1.582204676,-6.08E-05
0.1,-2.494099478,-1.578537587,-6.08E-05
0.10025,-2.494099478,-1.578537587,-6.08E-05
0.1005,-2.494099478,-1.578537587,-5.71E-05
0.10075,-2.494099478,-1.574870497,-5.71E-05
0.101,-2.494099478,-1.571203408,-5.71E-05
0.10125,-2.494099478,-1.571203408,-5.71E-05
0.1015,-2.494099478,-1.567536319,-5.71E-05
0.10175,-2.494099478,-1.567536319,-5.71E-05
0.102,-2.490448496,-1.563869229,-5.71E-05
0.10225,-2.490448496,-1.56020214,-5.34E-05
0.1025,-2.490448496,-1.556535051,-5.34E-05
0.10275,-2.490448496,-1.556535051,-5.34E-05
0.103,-2.490448496,-1.556535051,-5.34E-05
0.10325,-2.490448496,-1.552867962,-5.34E-05
0.1035,-2.490448496,-1.549200872,-5.34E-05
0.10375,-2.490448496,-1.545533783,-5.34E-05
0.104,-2.490448496,-1.545533783,-5.34E-05
0.10425,-2.486797514,-1.541866694,-4.97E-05
0.1045,-2.486797514,-1.538199604,-4.97E-05
0.10475,-2.486797514,-1.538199604,-4.97E-05
0.105,-2.486797514,-1.538199604,-4.97E-05
0.10525,-2.486797514,-1.534532515,-4.97E-05
0.1055,-2.486797514,-1.534532515,-4.60E-05
0.10575,-2.486797514,-1.530865426,-4.97E-05
0.106,-2.486797514,-1.530865426,-4.60E-05
0.10625,-2.486797514,-1.527198336,-4.60E-05
0.1065,-2.483146533,-1.523531247,-4.60E-05
0.10675,-2.483146533,-1.523531247,-4.60E-05
0.107,-2.483146533,-1.519864158,-4.60E-05
0.10725,-2.483146533,-1.519864158,-4.23E-05
0.1075,-2.483146533,-1.516197068,-4.60E-05
0.10775,-2.483146533,-1.512529979,-4.23E-05
0.108,-2.483146533,-1.512529979,-4.60E-05
0.10825,-2.483146533,-1.512529979,-4.23E-05
0.1085,-2.483146533,-1.50886289,-4.23E-05
0.10875,-2.483146533,-1.5051958,-4.23E-05
0.109,-2.479495551,-1.5051958,-4.23E-05
