Physics/Experimental 1/Lab 1/Original Data/blue led.csv

#Digilent WaveForms Oscilloscope Acquisition
#Device Name: Discovery2
#Serial Number: SN:210321A41F6B
#Date Time: 2024-01-30 16:48:20.147
#Sample rate: 4000Hz
#Samples: 7111
#Trigger: Source: Channel 1 Type: Edge Condition: Rising Level: 1.2 V Hyst.: Auto HoldOff: 0 s
#Channel 1: Range: 1 V/div Offset: 400 mV Attenuation: 1 X Sample Mode: Average
#Channel 2: Range: 1 V/div Offset: 400 mV Attenuation: 1 X Sample Mode: Average
#Math 1: Function: C2 * ( 0.0010067)

#Wavegen Channel 1: Running
#Mode: Simple
#Type: RampUp
#Frequency: 1 Hz
#Period: 1 s
#Amplitude: 5 V
#Offset: 0 V
#Symmetry: 100 %
#Phase: 0 °

Time (s),Channel 1 (V),Channel 2 (V),Math 1 (A)
-1.00025,-4.549462484293531,-0.009910652077672388,-9.977053446592793e-06
-1,-4.545811502732999,-0.009910652077672388,-9.977053446592793e-06
-0.99975,-4.545811502732999,-0.009910652077672388,-9.977053446592793e-06
-0.9994999999999999,-4.542160521172468,-0.009910652077672388,-9.977053446592793e-06
-0.99925,-4.538509539611937,-0.009910652077672388,-9.977053446592793e-06
-0.999,-4.538509539611937,-0.009910652077672388,-9.977053446592793e-06
-0.99875,-4.534858558051405,-0.009910652077672388,-9.977053446592793e-06
-0.9984999999999999,-4.531207576490874,-0.006243562753014131,-6.285394623459325e-06
-0.99825,-4.531207576490874,-0.009910652077672388,-9.977053446592793e-06
-0.998,-4.527556594930342,-0.006243562753014131,-6.285394623459325e-06
-0.99775,-4.523905613369811,-0.006243562753014131,-6.285394623459325e-06
-0.9974999999999999,-4.52025463180928,-0.009910652077672388,-9.977053446592793e-06
-0.99725,-4.516603650248748,-0.009910652077672388,-9.977053446592793e-06
-0.997,-4.516603650248748,-0.009910652077672388,-9.977053446592793e-06
-0.99675,-4.512952668688217,-0.009910652077672388,-9.977053446592793e-06
-0.9964999999999999,-4.509301687127685,-0.009910652077672388,-9.977053446592793e-06
-0.99625,-4.509301687127685,-0.009910652077672388,-9.977053446592793e-06
-0.996,-4.505650705567154,-0.009910652077672388,-9.977053446592793e-06
-0.99575,-4.501999724006623,-0.006243562753014131,-6.285394623459325e-06
-0.9954999999999999,-4.501999724006623,-0.009910652077672388,-9.977053446592793e-06
-0.99525,-4.498348742446091,-0.006243562753014131,-6.285394623459325e-06
-0.995,-4.498348742446091,-0.006243562753014131,-6.285394623459325e-06
-0.99475,-4.49469776088556,-0.006243562753014131,-6.285394623459325e-06
-0.9944999999999999,-4.491046779325028,-0.006243562753014131,-6.285394623459325e-06
-0.99425,-4.487395797764497,-0.009910652077672388,-9.977053446592793e-06
-0.994,-4.487395797764497,-0.009910652077672388,-9.977053446592793e-06
-0.99375,-4.483744816203966,-0.006243562753014131,-6.285394623459325e-06
-0.9934999999999999,-4.483744816203966,-0.006243562753014131,-6.285394623459325e-06
-0.99325,-4.480093834643434,-0.006243562753014131,-6.285394623459325e-06
-0.993,-4.476442853082903,-0.009910652077672388,-9.977053446592793e-06
-0.99275,-4.472791871522372,-0.009910652077672388,-9.977053446592793e-06
-0.9924999999999999,-4.472791871522372,-0.009910652077672388,-9.977053446592793e-06
-0.99225,-4.469140889961841,-0.009910652077672388,-9.977053446592793e-06
-0.992,-4.46548990840131,-0.009910652077672388,-9.977053446592793e-06
-0.99175,-4.461838926840778,-0.009910652077672388,-9.977053446592793e-06
-0.9914999999999999,-4.461838926840778,-0.009910652077672388,-9.977053446592793e-06
-0.99125,-4.458187945280247,-0.009910652077672388,-9.977053446592793e-06
-0.991,-4.454536963719715,-0.009910652077672388,-9.977053446592793e-06
-0.99075,-4.454536963719715,-0.009910652077672388,-9.977053446592793e-06
-0.9904999999999999,-4.450885982159184,-0.009910652077672388,-9.977053446592793e-06
-0.99025,-4.447235000598653,-0.009910652077672388,-9.977053446592793e-06
-0.99,-4.447235000598653,-0.009910652077672388,-9.977053446592793e-06
-0.98975,-4.443584019038121,-0.009910652077672388,-9.977053446592793e-06
-0.9894999999999999,-4.43993303747759,-0.009910652077672388,-9.977053446592793e-06
-0.98925,-4.43993303747759,-0.009910652077672388,-9.977053446592793e-06
-0.989,-4.436282055917058,-0.009910652077672388,-9.977053446592793e-06
-0.98875,-4.432631074356527,-0.009910652077672388,-9.977053446592793e-06
-0.9884999999999999,-4.428980092795996,-0.009910652077672388,-9.977053446592793e-06
-0.98825,-4.428980092795996,-0.009910652077672388,-9.977053446592793e-06
-0.988,-4.425329111235464,-0.009910652077672388,-9.977053446592793e-06
-0.98775,-4.425329111235464,-0.009910652077672388,-9.977053446592793e-06
-0.9874999999999999,-4.421678129674933,-0.009910652077672388,-9.977053446592793e-06
-0.98725,-4.418027148114401,-0.009910652077672388,-9.977053446592793e-06
-0.987,-4.41437616655387,-0.009910652077672388,-9.977053446592793e-06
-0.98675,-4.41437616655387,-0.009910652077672388,-9.977053446592793e-06
-0.9864999999999999,-4.410725184993339,-0.009910652077672388,-9.977053446592793e-06
-0.98625,-4.407074203432807,-0.009910652077672388,-9.977053446592793e-06
-0.986,-4.403423221872276,-0.009910652077672388,-9.977053446592793e-06
-0.98575,-4.403423221872276,-0.009910652077672388,-9.977053446592793e-06
-0.9854999999999999,-4.403423221872276,-0.009910652077672388,-9.977053446592793e-06
-0.98525,-4.399772240311744,-0.009910652077672388,-9.977053446592793e-06
-0.985,-4.396121258751213,-0.009910652077672388,-9.977053446592793e-06
-0.98475,-4.392470277190682,-0.009910652077672388,-9.977053446592793e-06
-0.9844999999999999,-4.392470277190682,-0.006243562753014131,-6.285394623459325e-06
-0.98425,-4.38881929563015,-0.009910652077672388,-9.977053446592793e-06
-0.984,-4.385168314069619,-0.009910652077672388,-9.977053446592793e-06
-0.98375,-4.385168314069619,-0.009910652077672388,-9.977053446592793e-06
-0.9834999999999999,-4.381517332509087,-0.009910652077672388,-9.977053446592793e-06
-0.98325,-4.377866350948556,-0.009910652077672388,-9.977053446592793e-06
-0.983,-4.374215369388025,-0.009910652077672388,-9.977053446592793e-06
-0.98275,-4.374215369388025,-0.009910652077672388,-9.977053446592793e-06
-0.9824999999999999,-4.370564387827494,-0.009910652077672388,-9.977053446592793e-06
-0.98225,-4.366913406266963,-0.009910652077672388,-9.977053446592793e-06
-0.982,-4.366913406266963,-0.009910652077672388,-9.977053446592793e-06
-0.98175,-4.363262424706431,-0.009910652077672388,-9.977053446592793e-06
-0.9814999999999999,-4.3596114431459,-0.009910652077672388,-9.977053446592793e-06
-0.98125,-4.355960461585369,-0.009910652077672388,-9.977053446592793e-06
-0.981,-4.355960461585369,-0.009910652077672388,-9.977053446592793e-06
-0.98075,-4.352309480024837,-0.009910652077672388,-9.977053446592793e-06
-0.9804999999999999,-4.352309480024837,-0.009910652077672388,-9.977053446592793e-06
-0.98025,-4.348658498464306,-0.009910652077672388,-9.977053446592793e-06
-0.98,-4.345007516903774,-0.009910652077672388,-9.977053446592793e-06
-0.97975,-4.341356535343243,-0.009910652077672388,-9.977053446592793e-06
-0.9794999999999999,-4.341356535343243,-0.006243562753014131,-6.285394623459325e-06
-0.97925,-4.337705553782712,-0.009910652077672388,-9.977053446592793e-06
-0.979,-4.33405457222218,-0.009910652077672388,-9.977053446592793e-06
-0.97875,-4.33405457222218,-0.009910652077672388,-9.977053446592793e-06
-0.9784999999999999,-4.330403590661649,-0.009910652077672388,-9.977053446592793e-06
-0.97825,-4.326752609101117,-0.006243562753014131,-6.285394623459325e-06
-0.978,-4.323101627540586,-0.006243562753014131,-6.285394623459325e-06
-0.97775,-4.323101627540586,-0.009910652077672388,-9.977053446592793e-06
-0.9774999999999999,-4.319450645980055,-0.009910652077672388,-9.977053446592793e-06
-0.97725,-4.315799664419523,-0.006243562753014131,-6.285394623459325e-06
-0.977,-4.315799664419523,-0.009910652077672388,-9.977053446592793e-06
-0.97675,-4.312148682858992,-0.006243562753014131,-6.285394623459325e-06
-0.9764999999999999,-4.312148682858992,-0.009910652077672388,-9.977053446592793e-06
-0.97625,-4.30849770129846,-0.009910652077672388,-9.977053446592793e-06
-0.976,-4.304846719737929,-0.006243562753014131,-6.285394623459325e-06
-0.97575,-4.301195738177398,-0.006243562753014131,-6.285394623459325e-06
-0.9754999999999999,-4.301195738177398,-0.009910652077672388,-9.977053446592793e-06
-0.97525,-4.297544756616866,-0.006243562753014131,-6.285394623459325e-06
-0.975,-4.293893775056335,-0.009910652077672388,-9.977053446592793e-06
-0.97475,-4.293893775056335,-0.009910652077672388,-9.977053446592793e-06
-0.9744999999999999,-4.290242793495803,-0.009910652077672388,-9.977053446592793e-06
-0.9742499999999999,-4.286591811935272,-0.009910652077672388,-9.977053446592793e-06
-0.974,-4.286591811935272,-0.009910652077672388,-9.977053446592793e-06
-0.97375,-4.282940830374741,-0.009910652077672388,-9.977053446592793e-06
-0.9734999999999999,-4.279289848814209,-0.009910652077672388,-9.977053446592793e-06
-0.9732499999999999,-4.275638867253678,-0.009910652077672388,-9.977053446592793e-06
-0.973,-4.275638867253678,-0.009910652077672388,-9.977053446592793e-06
-0.97275,-4.271987885693147,-0.009910652077672388,-9.977053446592793e-06
-0.9724999999999999,-4.271987885693147,-0.009910652077672388,-9.977053446592793e-06
-0.9722499999999999,-4.268336904132616,-0.009910652077672388,-9.977053446592793e-06
-0.972,-4.264685922572085,-0.009910652077672388,-9.977053446592793e-06
-0.97175,-4.264685922572085,-0.009910652077672388,-9.977053446592793e-06
-0.9714999999999999,-4.261034941011553,-0.009910652077672388,-9.977053446592793e-06
-0.9712499999999999,-4.261034941011553,-0.009910652077672388,-9.977053446592793e-06
-0.971,-4.257383959451022,-0.009910652077672388,-9.977053446592793e-06
-0.97075,-4.257383959451022,-0.009910652077672388,-9.977053446592793e-06
-0.9704999999999999,-4.25373297789049,-0.009910652077672388,-9.977053446592793e-06
-0.9702499999999999,-4.250081996329959,-0.009910652077672388,-9.977053446592793e-06
-0.97,-4.246431014769428,-0.009910652077672388,-9.977053446592793e-06
-0.96975,-4.246431014769428,-0.009910652077672388,-9.977053446592793e-06
-0.9694999999999999,-4.242780033208896,-0.009910652077672388,-9.977053446592793e-06
-0.9692499999999999,-4.242780033208896,-0.009910652077672388,-9.977053446592793e-06
-0.969,-4.239129051648365,-0.009910652077672388,-9.977053446592793e-06
-0.96875,-4.235478070087833,-0.009910652077672388,-9.977053446592793e-06
-0.9685,-4.235478070087833,-0.009910652077672388,-9.977053446592793e-06
-0.9682499999999999,-4.231827088527302,-0.006243562753014131,-6.285394623459325e-06
-0.968,-4.228176106966771,-0.009910652077672388,-9.977053446592793e-06
-0.96775,-4.224525125406239,-0.006243562753014131,-6.285394623459325e-06
-0.9675,-4.224525125406239,-0.009910652077672388,-9.977053446592793e-06
-0.9672499999999999,-4.220874143845708,-0.009910652077672388,-9.977053446592793e-06
-0.967,-4.217223162285176,-0.006243562753014131,-6.285394623459325e-06
-0.96675,-4.213572180724645,-0.009910652077672388,-9.977053446592793e-06
-0.9665,-4.213572180724645,-0.009910652077672388,-9.977053446592793e-06
-0.9662499999999999,-4.209921199164114,-0.006243562753014131,-6.285394623459325e-06
-0.966,-4.206270217603582,-0.009910652077672388,-9.977053446592793e-06
-0.96575,-4.206270217603582,-0.009910652077672388,-9.977053446592793e-06
-0.9655,-4.202619236043051,-0.009910652077672388,-9.977053446592793e-06
-0.9652499999999999,-4.202619236043051,-0.006243562753014131,-6.285394623459325e-06
-0.965,-4.198968254482519,-0.009910652077672388,-9.977053446592793e-06
-0.96475,-4.195317272921988,-0.009910652077672388,-9.977053446592793e-06
-0.9645,-4.191666291361457,-0.006243562753014131,-6.285394623459325e-06
-0.9642499999999999,-4.191666291361457,-0.009910652077672388,-9.977053446592793e-06
-0.964,-4.188015309800925,-0.009910652077672388,-9.977053446592793e-06
-0.96375,-4.184364328240394,-0.009910652077672388,-9.977053446592793e-06
-0.9635,-4.180713346679862,-0.009910652077672388,-9.977053446592793e-06
-0.9632499999999999,-4.180713346679862,-0.009910652077672388,-9.977053446592793e-06
-0.963,-4.177062365119331,-0.009910652077672388,-9.977053446592793e-06
-0.96275,-4.177062365119331,-0.009910652077672388,-9.977053446592793e-06
-0.9625,-4.1734113835588,-0.009910652077672388,-9.977053446592793e-06
-0.9622499999999999,-4.169760401998269,-0.009910652077672388,-9.977053446592793e-06
-0.962,-4.169760401998269,-0.006243562753014131,-6.285394623459325e-06
-0.96175,-4.166109420437738,-0.009910652077672388,-9.977053446592793e-06
-0.9615,-4.162458438877206,-0.006243562753014131,-6.285394623459325e-06
-0.9612499999999999,-4.158807457316675,-0.009910652077672388,-9.977053446592793e-06
-0.961,-4.158807457316675,-0.009910652077672388,-9.977053446592793e-06
-0.96075,-4.155156475756144,-0.009910652077672388,-9.977053446592793e-06
-0.9605,-4.151505494195612,-0.009910652077672388,-9.977053446592793e-06
-0.9602499999999999,-4.151505494195612,-0.009910652077672388,-9.977053446592793e-06
-0.96,-4.147854512635081,-0.009910652077672388,-9.977053446592793e-06
-0.95975,-4.147854512635081,-0.009910652077672388,-9.977053446592793e-06
-0.9595,-4.144203531074549,-0.009910652077672388,-9.977053446592793e-06
-0.9592499999999999,-4.140552549514018,-0.009910652077672388,-9.977053446592793e-06
-0.959,-4.136901567953487,-0.009910652077672388,-9.977053446592793e-06
-0.95875,-4.136901567953487,-0.009910652077672388,-9.977053446592793e-06
-0.9585,-4.133250586392955,-0.009910652077672388,-9.977053446592793e-06
-0.9582499999999999,-4.129599604832424,-0.006243562753014131,-6.285394623459325e-06
-0.958,-4.129599604832424,-0.009910652077672388,-9.977053446592793e-06
-0.95775,-4.125948623271892,-0.009910652077672388,-9.977053446592793e-06
-0.9575,-4.122297641711361,-0.006243562753014131,-6.285394623459325e-06
-0.9572499999999999,-4.11864666015083,-0.006243562753014131,-6.285394623459325e-06
-0.957,-4.11864666015083,-0.009910652077672388,-9.977053446592793e-06
-0.95675,-4.114995678590298,-0.009910652077672388,-9.977053446592793e-06
-0.9565,-4.114995678590298,-0.009910652077672388,-9.977053446592793e-06
-0.9562499999999999,-4.111344697029767,-0.009910652077672388,-9.977053446592793e-06
-0.956,-4.107693715469235,-0.009910652077672388,-9.977053446592793e-06
-0.95575,-4.104042733908704,-0.009910652077672388,-9.977053446592793e-06
-0.9555,-4.104042733908704,-0.009910652077672388,-9.977053446592793e-06
-0.9552499999999999,-4.100391752348173,-0.009910652077672388,-9.977053446592793e-06
-0.955,-4.100391752348173,-0.009910652077672388,-9.977053446592793e-06
-0.95475,-4.096740770787641,-0.009910652077672388,-9.977053446592793e-06
-0.9545,-4.09308978922711,-0.006243562753014131,-6.285394623459325e-06
-0.9542499999999999,-4.089438807666578,-0.006243562753014131,-6.285394623459325e-06
-0.954,-4.085787826106047,-0.006243562753014131,-6.285394623459325e-06
-0.95375,-4.085787826106047,-0.009910652077672388,-9.977053446592793e-06
-0.9535,-4.082136844545516,-0.006243562753014131,-6.285394623459325e-06
-0.9532499999999999,-4.078485862984985,-0.006243562753014131,-6.285394623459325e-06
-0.953,-4.078485862984985,-0.006243562753014131,-6.285394623459325e-06
-0.95275,-4.078485862984985,-0.009910652077672388,-9.977053446592793e-06
-0.9525,-4.074834881424453,-0.006243562753014131,-6.285394623459325e-06
-0.9522499999999999,-4.071183899863922,-0.009910652077672388,-9.977053446592793e-06
-0.952,-4.067532918303391,-0.009910652077672388,-9.977053446592793e-06
-0.95175,-4.067532918303391,-0.009910652077672388,-9.977053446592793e-06
-0.9515,-4.06388193674286,-0.009910652077672388,-9.977053446592793e-06
-0.9512499999999999,-4.060230955182328,-0.009910652077672388,-9.977053446592793e-06
-0.951,-4.060230955182328,-0.009910652077672388,-9.977053446592793e-06
-0.95075,-4.056579973621797,-0.009910652077672388,-9.977053446592793e-06
-0.9505,-4.052928992061265,-0.009910652077672388,-9.977053446592793e-06
-0.9502499999999999,-4.049278010500734,-0.009910652077672388,-9.977053446592793e-06
-0.95,-4.049278010500734,-0.009910652077672388,-9.977053446592793e-06
-0.94975,-4.045627028940203,-0.009910652077672388,-9.977053446592793e-06
-0.9495,-4.041976047379671,-0.009910652077672388,-9.977053446592793e-06
-0.9492499999999999,-4.03832506581914,-0.006243562753014131,-6.285394623459325e-06
-0.949,-4.03832506581914,-0.009910652077672388,-9.977053446592793e-06
-0.94875,-4.034674084258608,-0.009910652077672388,-9.977053446592793e-06
-0.9485,-4.031023102698077,-0.009910652077672388,-9.977053446592793e-06
-0.9482499999999999,-4.031023102698077,-0.006243562753014131,-6.285394623459325e-06
-0.948,-4.027372121137546,-0.009910652077672388,-9.977053446592793e-06
-0.94775,-4.027372121137546,-0.009910652077672388,-9.977053446592793e-06
-0.9475,-4.023721139577014,-0.009910652077672388,-9.977053446592793e-06
-0.9472499999999999,-4.020070158016483,-0.009910652077672388,-9.977053446592793e-06
-0.947,-4.016419176455951,-0.006243562753014131,-6.285394623459325e-06
-0.94675,-4.016419176455951,-0.009910652077672388,-9.977053446592793e-06
-0.9465,-4.01276819489542,-0.009910652077672388,-9.977053446592793e-06
-0.9462499999999999,-4.009117213334889,-0.006243562753014131,-6.285394623459325e-06
-0.946,-4.009117213334889,-0.006243562753014131,-6.285394623459325e-06
-0.94575,-4.005466231774357,-0.006243562753014131,-6.285394623459325e-06
-0.9455,-4.005466231774357,-0.006243562753014131,-6.285394623459325e-06
-0.9452499999999999,-4.001815250213826,-0.006243562753014131,-6.285394623459325e-06
-0.945,-3.998164268653295,-0.006243562753014131,-6.285394623459325e-06
-0.94475,-3.994513287092763,-0.006243562753014131,-6.285394623459325e-06
-0.9445,-3.994513287092763,-0.006243562753014131,-6.285394623459325e-06
-0.9442499999999999,-3.990862305532232,-0.006243562753014131,-6.285394623459325e-06
-0.944,-3.9872113239717,-0.006243562753014131,-6.285394623459325e-06
-0.94375,-3.9872113239717,-0.006243562753014131,-6.285394623459325e-06
-0.9435,-3.983560342411169,-0.006243562753014131,-6.285394623459325e-06
-0.9432499999999999,-3.979909360850638,-0.006243562753014131,-6.285394623459325e-06
-0.9429999999999999,-3.979909360850638,-0.009910652077672388,-9.977053446592793e-06
-0.94275,-3.976258379290107,-0.009910652077672388,-9.977053446592793e-06
-0.9425,-3.972607397729575,-0.009910652077672388,-9.977053446592793e-06
-0.9422499999999999,-3.972607397729575,-0.009910652077672388,-9.977053446592793e-06
-0.9419999999999999,-3.968956416169044,-0.006243562753014131,-6.285394623459325e-06
-0.94175,-3.965305434608513,-0.006243562753014131,-6.285394623459325e-06
-0.9415,-3.961654453047981,-0.009910652077672388,-9.977053446592793e-06
-0.9412499999999999,-3.961654453047981,-0.009910652077672388,-9.977053446592793e-06
-0.9409999999999999,-3.95800347148745,-0.009910652077672388,-9.977053446592793e-06
-0.94075,-3.954352489926918,-0.006243562753014131,-6.285394623459325e-06
-0.9405,-3.954352489926918,-0.009910652077672388,-9.977053446592793e-06
-0.9402499999999999,-3.950701508366387,-0.009910652077672388,-9.977053446592793e-06
-0.9399999999999999,-3.947050526805856,-0.006243562753014131,-6.285394623459325e-06
-0.93975,-3.947050526805856,-0.006243562753014131,-6.285394623459325e-06
-0.9395,-3.943399545245324,-0.009910652077672388,-9.977053446592793e-06
-0.9392499999999999,-3.943399545245324,-0.009910652077672388,-9.977053446592793e-06
-0.9389999999999999,-3.939748563684793,-0.006243562753014131,-6.285394623459325e-06
-0.93875,-3.936097582124261,-0.009910652077672388,-9.977053446592793e-06
-0.9385,-3.93244660056373,-0.006243562753014131,-6.285394623459325e-06
-0.9382499999999999,-3.93244660056373,-0.009910652077672388,-9.977053446592793e-06
-0.9379999999999999,-3.928795619003199,-0.009910652077672388,-9.977053446592793e-06
-0.93775,-3.925144637442668,-0.006243562753014131,-6.285394623459325e-06
-0.9375,-3.925144637442668,-0.006243562753014131,-6.285394623459325e-06
-0.93725,-3.921493655882136,-0.006243562753014131,-6.285394623459325e-06
-0.9369999999999999,-3.917842674321605,-0.006243562753014131,-6.285394623459325e-06
-0.93675,-3.914191692761073,-0.006243562753014131,-6.285394623459325e-06
-0.9365,-3.914191692761073,-0.006243562753014131,-6.285394623459325e-06
