Physics/Experimental 1/Lab 1/Original Data/rectifier diode.csv

#Digilent WaveForms Oscilloscope Acquisition
#Device Name: Discovery2
#Serial Number: SN:210321A41F6B
#Date Time: 2024-01-30 16:43:38.062
#Sample rate: 4000Hz
#Samples: 8000
#Trigger: Source: Channel 1 Type: Edge Condition: Rising Level: 1.2 V Hyst.: Auto HoldOff: 0 s
#Channel 1: Range: 1 V/div Offset: 50 mV Attenuation: 1 X Sample Mode: Average
#Channel 2: Range: 1 V/div Offset: 0 V Attenuation: 1 X Sample Mode: Average
#Math 1: Function: C2 * ( 0.0010067)

#Wavegen Channel 1: Running
#Mode: Simple
#Type: RampUp
#Frequency: 1 Hz
#Period: 1 s
#Amplitude: 5 V
#Offset: 0 V
#Symmetry: 100 %
#Phase: 0 °

Time (s),Channel 1 (V),Channel 2 (V),Math 1 (A)
-1,0.6165368120360211,3.089667123497323,5.682822969503456e-06
-0.99975,0.6165368120360211,3.093334212821981,9.374481792636928e-06
-0.9995000000000001,0.6165368120360211,3.093334212821981,9.374481792636928e-06
-0.99925,0.6165368120360211,3.097001302146639,9.374481792636928e-06
-0.999,0.6165368120360211,3.100668391471297,5.682822969503456e-06
-0.99875,0.6165368120360211,3.100668391471297,5.682822969503456e-06
-0.9985000000000001,0.6165368120360211,3.104335480795956,5.682822969503456e-06
-0.99825,0.6165368120360211,3.108002570120614,9.374481792636928e-06
-0.998,0.6165368120360211,3.108002570120614,9.374481792636928e-06
-0.99775,0.6165368120360211,3.111669659445272,9.374481792636928e-06
-0.9975000000000001,0.6165368120360211,3.115336748769931,9.374481792636928e-06
-0.99725,0.6165368120360211,3.115336748769931,9.374481792636928e-06
-0.997,0.6165368120360211,3.119003838094589,9.374481792636928e-06
-0.99675,0.6128858304754896,3.122670927419247,9.374481792636928e-06
-0.9965000000000001,0.6165368120360211,3.126338016743905,9.374481792636928e-06
-0.99625,0.6165368120360211,3.126338016743905,9.374481792636928e-06
-0.996,0.6128858304754896,3.130005106068563,9.374481792636928e-06
-0.99575,0.6165368120360211,3.133672195393222,1.30661406157704e-05
-0.9955000000000001,0.6165368120360211,3.13733928471788,1.30661406157704e-05
-0.99525,0.6165368120360211,3.13733928471788,1.30661406157704e-05
-0.995,0.6128858304754896,3.141006374042538,1.30661406157704e-05
-0.99475,0.6165368120360211,3.141006374042538,1.30661406157704e-05
-0.9945000000000001,0.6165368120360211,3.144673463367197,1.30661406157704e-05
-0.99425,0.6165368120360211,3.148340552691855,1.30661406157704e-05
-0.994,0.6165368120360211,3.152007642016513,1.30661406157704e-05
-0.99375,0.6165368120360211,3.152007642016513,1.30661406157704e-05
-0.9935,0.6165368120360211,3.155674731341171,1.30661406157704e-05
-0.99325,0.6165368120360211,3.15934182066583,1.675779943890388e-05
-0.993,0.6165368120360211,3.15934182066583,1.675779943890388e-05
-0.99275,0.6165368120360211,3.163008909990488,1.675779943890388e-05
-0.9925,0.6165368120360211,3.166675999315146,1.675779943890388e-05
-0.99225,0.6165368120360211,3.166675999315146,1.675779943890388e-05
-0.992,0.6165368120360211,3.170343088639804,2.044945826203735e-05
-0.99175,0.6165368120360211,3.174010177964463,2.044945826203735e-05
-0.9915,0.6165368120360211,3.174010177964463,2.044945826203735e-05
-0.99125,0.6165368120360211,3.177677267289121,2.044945826203735e-05
-0.991,0.6165368120360211,3.177677267289121,2.414111708517082e-05
-0.99075,0.6165368120360211,3.181344356613779,2.414111708517082e-05
-0.9905,0.6165368120360211,3.185011445938438,2.414111708517082e-05
-0.99025,0.6165368120360211,3.185011445938438,2.78327759083043e-05
-0.99,0.6165368120360211,3.188678535263096,2.78327759083043e-05
-0.98975,0.6165368120360211,3.188678535263096,2.78327759083043e-05
-0.9895,0.6165368120360211,3.192345624587754,2.78327759083043e-05
-0.98925,0.6165368120360211,3.196012713912412,2.78327759083043e-05
-0.989,0.6165368120360211,3.196012713912412,3.152443473143777e-05
-0.98875,0.6165368120360211,3.199679803237071,3.152443473143777e-05
-0.9885,0.6165368120360211,3.203346892561729,3.152443473143777e-05
-0.98825,0.6165368120360211,3.207013981886387,3.521609355457124e-05
-0.988,0.6165368120360211,3.207013981886387,3.521609355457124e-05
-0.98775,0.6165368120360211,3.210681071211045,3.521609355457124e-05
-0.9875,0.6165368120360211,3.214348160535704,3.890775237770472e-05
-0.98725,0.6165368120360211,3.218015249860362,3.890775237770472e-05
-0.987,0.6165368120360211,3.218015249860362,3.890775237770472e-05
-0.98675,0.6165368120360211,3.22168233918502,4.259941120083818e-05
-0.9865,0.6165368120360211,3.22168233918502,4.259941120083818e-05
-0.98625,0.6165368120360211,3.225349428509678,4.629107002397166e-05
-0.986,0.6165368120360211,3.229016517834337,4.629107002397166e-05
-0.98575,0.6165368120360211,3.229016517834337,4.629107002397166e-05
-0.9855,0.6165368120360211,3.232683607158995,4.998272884710513e-05
-0.98525,0.6165368120360211,3.232683607158995,4.998272884710513e-05
-0.985,0.6165368120360211,3.236350696483653,4.998272884710513e-05
-0.98475,0.6165368120360211,3.240017785808312,4.998272884710513e-05
-0.9845,0.6165368120360211,3.24368487513297,5.36743876702386e-05
-0.98425,0.6165368120360211,3.24368487513297,5.36743876702386e-05
-0.984,0.6165368120360211,3.247351964457628,5.36743876702386e-05
-0.98375,0.6165368120360211,3.251019053782287,5.736604649337208e-05
-0.9835,0.6165368120360211,3.254686143106944,5.736604649337208e-05
-0.98325,0.6165368120360211,3.254686143106944,6.105770531650555e-05
-0.983,0.6165368120360211,3.258353232431603,6.105770531650555e-05
-0.98275,0.6165368120360211,3.258353232431603,6.474936413963903e-05
-0.9825,0.6165368120360211,3.262020321756261,6.474936413963903e-05
-0.98225,0.6165368120360211,3.265687411080919,6.844102296277249e-05
-0.982,0.6165368120360211,3.269354500405578,6.844102296277249e-05
-0.98175,0.6165368120360211,3.269354500405578,6.844102296277249e-05
-0.9815,0.6165368120360211,3.273021589730236,7.213268178590598e-05
-0.98125,0.6201877935965524,3.276688679054894,7.213268178590598e-05
-0.981,0.6165368120360211,3.276688679054894,7.213268178590598e-05
-0.98075,0.6165368120360211,3.280355768379553,7.582434060903944e-05
-0.9805,0.6201877935965524,3.280355768379553,7.951599943217293e-05
-0.98025,0.6201877935965524,3.284022857704211,7.951599943217293e-05
-0.98,0.6201877935965524,3.287689947028869,7.951599943217293e-05
-0.97975,0.6201877935965524,3.291357036353527,8.320765825530639e-05
-0.9795,0.6201877935965524,3.295024125678185,8.320765825530639e-05
-0.97925,0.6201877935965524,3.295024125678185,8.689931707843986e-05
-0.979,0.6201877935965524,3.298691215002844,8.689931707843986e-05
-0.97875,0.6165368120360211,3.298691215002844,9.059097590157334e-05
-0.9785,0.6201877935965524,3.302358304327502,9.059097590157334e-05
-0.97825,0.6201877935965524,3.30602539365216,9.428263472470681e-05
-0.978,0.6165368120360211,3.309692482976819,9.428263472470681e-05
-0.97775,0.6201877935965524,3.309692482976819,9.797429354784029e-05
-0.9775,0.6201877935965524,3.313359572301477,9.797429354784029e-05
-0.97725,0.6201877935965524,3.317026661626135,0.0001016659523709737
-0.977,0.6201877935965524,3.317026661626135,0.0001016659523709737
-0.97675,0.6201877935965524,3.320693750950793,0.0001053576111941072
-0.9765,0.6201877935965524,3.320693750950793,0.0001053576111941072
-0.97625,0.6165368120360211,3.324360840275451,0.0001053576111941072
-0.976,0.6201877935965524,3.32802792960011,0.0001090492700172407
-0.97575,0.6201877935965524,3.331695018924768,0.0001090492700172407
-0.9755,0.6201877935965524,3.331695018924768,0.0001127409288403742
-0.97525,0.6201877935965524,3.335362108249426,0.0001164325876635076
-0.975,0.6165368120360211,3.339029197574085,0.0001164325876635076
-0.97475,0.6201877935965524,3.339029197574085,0.0001164325876635076
-0.9745,0.6201877935965524,3.342696286898743,0.0001201242464866411
-0.9742499999999999,0.6201877935965524,3.346363376223401,0.0001201242464866411
-0.974,0.6201877935965524,3.346363376223401,0.0001238159053097746
-0.97375,0.6201877935965524,3.350030465548059,0.0001238159053097746
-0.9735,0.6201877935965524,3.353697554872717,0.0001275075641329081
-0.9732499999999999,0.6165368120360211,3.353697554872717,0.0001275075641329081
-0.973,0.6201877935965524,3.357364644197376,0.0001311992229560415
-0.97275,0.6201877935965524,3.357364644197376,0.0001311992229560415
-0.9725,0.6201877935965524,3.364698822846692,0.000134890881779175
-0.9722499999999999,0.6201877935965524,3.364698822846692,0.000134890881779175
-0.972,0.6201877935965524,3.368365912171351,0.000134890881779175
-0.97175,0.6201877935965524,3.372033001496009,0.0001385825406023085
-0.9715,0.6201877935965524,3.375700090820667,0.0001385825406023085
-0.9712499999999999,0.6201877935965524,3.375700090820667,0.000142274199425442
-0.971,0.6201877935965524,3.375700090820667,0.000142274199425442
-0.97075,0.6201877935965524,3.379367180145326,0.0001459658582485754
-0.9705,0.6201877935965524,3.383034269469984,0.0001459658582485754
-0.9702499999999999,0.6201877935965524,3.386701358794642,0.0001496575170717089
-0.97,0.6201877935965524,3.386701358794642,0.0001533491758948424
-0.96975,0.6201877935965524,3.3903684481193,0.0001533491758948424
-0.9695,0.6201877935965524,3.394035537443958,0.0001533491758948424
-0.9692499999999999,0.6201877935965524,3.394035537443958,0.0001570408347179758
-0.969,0.6201877935965524,3.397702626768617,0.0001607324935411093
-0.96875,0.6201877935965524,3.401369716093275,0.0001607324935411093
-0.9685,0.6201877935965524,3.405036805417933,0.0001644241523642428
-0.9682500000000001,0.6201877935965524,3.405036805417933,0.0001644241523642428
-0.968,0.6201877935965524,3.408703894742592,0.0001681158111873763
-0.96775,0.6201877935965524,3.408703894742592,0.0001718074700105097
-0.9675,0.6201877935965524,3.41237098406725,0.0001718074700105097
-0.9672500000000001,0.6201877935965524,3.41237098406725,0.0001718074700105097
-0.967,0.6201877935965524,3.416038073391908,0.0001754991288336432
-0.96675,0.6201877935965524,3.416038073391908,0.0001754991288336432
-0.9665,0.6201877935965524,3.419705162716566,0.0001791907876567767
-0.9662500000000001,0.6201877935965524,3.419705162716566,0.0001791907876567767
-0.966,0.6201877935965524,3.423372252041225,0.0001828824464799102
-0.96575,0.6201877935965524,3.427039341365883,0.0001865741053030436
-0.9655,0.6201877935965524,3.430706430690541,0.0001865741053030436
-0.9652500000000001,0.6201877935965524,3.430706430690541,0.0001902657641261771
-0.965,0.6201877935965524,3.434373520015199,0.0001902657641261771
-0.96475,0.6201877935965524,3.434373520015199,0.0001939574229493106
-0.9645,0.6201877935965524,3.438040609339858,0.0001939574229493106
-0.9642500000000001,0.6201877935965524,3.441707698664516,0.0001976490817724441
-0.964,0.6201877935965524,3.441707698664516,0.0002013407405955775
-0.96375,0.6201877935965524,3.445374787989174,0.0002013407405955775
-0.9635,0.6201877935965524,3.449041877313832,0.000205032399418711
-0.9632500000000001,0.6201877935965524,3.452708966638491,0.0002087240582418445
-0.963,0.6201877935965524,3.452708966638491,0.0002087240582418445
-0.96275,0.6201877935965524,3.456376055963149,0.0002087240582418445
-0.9625,0.6238387751570837,3.460043145287807,0.000212415717064978
-0.96225,0.6238387751570837,3.460043145287807,0.0002161073758881114
-0.962,0.6201877935965524,3.463710234612466,0.0002161073758881114
-0.96175,0.6201877935965524,3.463710234612466,0.0002161073758881114
-0.9615,0.6201877935965524,3.467377323937124,0.0002197990347112449
-0.96125,0.6201877935965524,3.471044413261782,0.0002234906935343784
-0.961,0.6201877935965524,3.47471150258644,0.0002271823523575119
-0.96075,0.6201877935965524,3.47471150258644,0.0002271823523575119
-0.9605,0.6201877935965524,3.478378591911099,0.0002308740111806453
-0.96025,0.6201877935965524,3.482045681235757,0.0002308740111806453
-0.96,0.6201877935965524,3.482045681235757,0.0002345656700037788
-0.95975,0.6201877935965524,3.485712770560415,0.0002345656700037788
-0.9595,0.6201877935965524,3.489379859885073,0.0002382573288269123
-0.95925,0.6238387751570837,3.493046949209732,0.0002419489876500457
-0.959,0.6238387751570837,3.493046949209732,0.0002419489876500457
-0.95875,0.6201877935965524,3.49671403853439,0.0002456406464731792
-0.9585,0.6238387751570837,3.49671403853439,0.0002456406464731792
-0.95825,0.6201877935965524,3.500381127859048,0.0002493323052963127
-0.958,0.6238387751570837,3.504048217183707,0.0002493323052963127
-0.95775,0.6201877935965524,3.507715306508365,0.0002530239641194462
-0.9575,0.6201877935965524,3.507715306508365,0.0002530239641194462
-0.95725,0.6201877935965524,3.511382395833023,0.0002567156229425797
-0.957,0.6238387751570837,3.515049485157681,0.0002567156229425797
-0.95675,0.6238387751570837,3.515049485157681,0.0002604072817657131
-0.9565,0.6238387751570837,3.518716574482339,0.0002640989405888466
-0.95625,0.6238387751570837,3.522383663806998,0.0002640989405888466
-0.956,0.6238387751570837,3.522383663806998,0.00026779059941198
-0.95575,0.6238387751570837,3.526050753131656,0.00026779059941198
-0.9555,0.6238387751570837,3.529717842456314,0.0002714822582351135
-0.95525,0.6201877935965524,3.533384931780973,0.000275173917058247
-0.955,0.6238387751570837,3.533384931780973,0.0002788655758813804
-0.95475,0.6238387751570837,3.537052021105631,0.0002788655758813804
-0.9545,0.6201877935965524,3.540719110430289,0.0002825572347045139
-0.95425,0.6238387751570837,3.544386199754948,0.0002825572347045139
-0.954,0.6238387751570837,3.544386199754948,0.0002825572347045139
-0.95375,0.6238387751570837,3.548053289079605,0.0002862488935276474
-0.9535,0.6238387751570837,3.548053289079605,0.0002899405523507809
-0.95325,0.6238387751570837,3.551720378404264,0.0002899405523507809
-0.953,0.6238387751570837,3.555387467728922,0.0002936322111739144
-0.95275,0.6238387751570837,3.55905455705358,0.0002973238699970478
-0.9525,0.6238387751570837,3.55905455705358,0.0002973238699970478
-0.95225,0.6238387751570837,3.562721646378239,0.0003010155288201813
-0.952,0.6238387751570837,3.566388735702897,0.0003010155288201813
-0.95175,0.6238387751570837,3.566388735702897,0.0003047071876433148
-0.9515,0.6238387751570837,3.566388735702897,0.0003083988464664482
-0.95125,0.6238387751570837,3.570055825027555,0.0003083988464664482
-0.951,0.6238387751570837,3.570055825027555,0.0003120905052895817
-0.95075,0.6238387751570837,3.573722914352214,0.0003120905052895817
-0.9505,0.6238387751570837,3.577390003676872,0.0003157821641127152
-0.95025,0.6238387751570837,3.58105709300153,0.0003194738229358487
-0.95,0.6238387751570837,3.584724182326188,0.0003194738229358487
-0.94975,0.6238387751570837,3.584724182326188,0.0003231654817589821
-0.9495,0.6238387751570837,3.588391271650846,0.0003268571405821156
-0.94925,0.6238387751570837,3.588391271650846,0.0003268571405821156
-0.949,0.6238387751570837,3.592058360975505,0.0003268571405821156
-0.94875,0.6238387751570837,3.595725450300163,0.0003305487994052491
-0.9485,0.6238387751570837,3.595725450300163,0.0003342404582283826
-0.94825,0.6238387751570837,3.599392539624821,0.000337932117051516
-0.948,0.6238387751570837,3.60305962894948,0.000337932117051516
-0.94775,0.6238387751570837,3.606726718274138,0.0003416237758746495
-0.9475,0.6238387751570837,3.610393807598796,0.000345315434697783
-0.94725,0.6238387751570837,3.610393807598796,0.000345315434697783
-0.947,0.6238387751570837,3.614060896923454,0.0003490070935209164
-0.94675,0.6238387751570837,3.617727986248112,0.0003490070935209164
-0.9465,0.6238387751570837,3.617727986248112,0.0003526987523440499
-0.94625,0.6238387751570837,3.621395075572771,0.0003563904111671834
-0.946,0.6238387751570837,3.625062164897429,0.0003563904111671834
-0.94575,0.6238387751570837,3.628729254222087,0.0003600820699903169
-0.9455,0.6238387751570837,3.628729254222087,0.0003600820699903169
-0.94525,0.6238387751570837,3.632396343546746,0.0003637737288134504
-0.945,0.6238387751570837,3.636063432871404,0.0003637737288134504
-0.94475,0.6238387751570837,3.636063432871404,0.0003674653876365838
-0.9445,0.6238387751570837,3.636063432871404,0.0003711570464597173
-0.94425,0.6238387751570837,3.639730522196062,0.0003711570464597173
-0.944,0.6238387751570837,3.639730522196062,0.0003711570464597173
-0.94375,0.6238387751570837,3.643397611520721,0.0003748487052828507
-0.9435,0.6238387751570837,3.647064700845378,0.0003785403641059842
-0.94325,0.6238387751570837,3.647064700845378,0.0003785403641059842
-0.9429999999999999,0.6238387751570837,3.650731790170037,0.0003822320229291177
-0.94275,0.6238387751570837,3.654398879494695,0.0003822320229291177
-0.9425,0.6238387751570837,3.654398879494695,0.0003859236817522512
-0.94225,0.6238387751570837,3.658065968819353,0.0003859236817522512
-0.9419999999999999,0.6238387751570837,3.661733058144012,0.0003896153405753847
-0.94175,0.6238387751570837,3.661733058144012,0.0003896153405753847
-0.9415,0.6238387751570837,3.66540014746867,0.0003933069993985182
-0.94125,0.6238387751570837,3.669067236793328,0.0003933069993985182
-0.9409999999999999,0.6238387751570837,3.669067236793328,0.0003969986582216516
-0.94075,0.6238387751570837,3.672734326117987,0.0003969986582216516
-0.9405,0.6238387751570837,3.676401415442645,0.0004006903170447851
-0.94025,0.6238387751570837,3.676401415442645,0.0004043819758679185
-0.9399999999999999,0.6238387751570837,3.680068504767303,0.0004043819758679185
-0.93975,0.6238387751570837,3.683735594091961,0.000408073634691052
-0.9395,0.6238387751570837,3.68740268341662,0.0004117652935141855
-0.93925,0.6274897567176151,3.68740268341662,0.0004117652935141855
-0.9389999999999999,0.6238387751570837,3.691069772741278,0.000415456952337319
-0.93875,0.6238387751570837,3.691069772741278,0.0004191486111604524
-0.9385,0.6238387751570837,3.694736862065936,0.0004191486111604524
-0.93825,0.6238387751570837,3.698403951390594,0.000422840269983586
-0.9379999999999999,0.6238387751570837,3.698403951390594,0.0004265319288067194
-0.93775,0.6238387751570837,3.702071040715253,0.0004265319288067194
-0.9375,0.6238387751570837,3.705738130039911,0.0004265319288067194
-0.93725,0.6238387751570837,3.709405219364569,0.0004302235876298528
-0.9370000000000001,0.6238387751570837,3.709405219364569,0.0004339152464529863
-0.93675,0.6274897567176151,3.713072308689227,0.0004376069052761198
-0.9365,0.6238387751570837,3.716739398013886,0.0004376069052761198
-0.93625,0.6238387751570837,3.716739398013886,0.0004412985640992533
-0.9360000000000001,0.6238387751570837,3.720406487338544,0.0004449902229223867
-0.93575,0.6238387751570837,3.724073576663202,0.0004449902229223867
-0.9355,0.6274897567176151,3.724073576663202,0.0004449902229223867
-0.93525,0.6238387751570837,3.727740665987861,0.0004486818817455202
-0.9350000000000001,0.6238387751570837,3.731407755312519,0.0004523735405686537
-0.93475,0.6274897567176151,3.731407755312519,0.0004523735405686537
-0.9345,0.6238387751570837,3.735074844637177,0.0004560651993917872
-0.93425,0.6238387751570837,3.738741933961835,0.0004597568582149206
-0.9340000000000001,0.6238387751570837,3.742409023286493,0.0004634485170380541
-0.93375,0.6238387751570837,3.742409023286493,0.0004634485170380541
-0.9335,0.6274897567176151,3.746076112611152,0.0004671401758611876
-0.93325,0.6238387751570837,3.74974320193581,0.0004671401758611876
-0.9330000000000001,0.6238387751570837,3.74974320193581,0.0004708318346843211
-0.93275,0.6274897567176151,3.753410291260468,0.0004708318346843211
-0.9325,0.6238387751570837,3.757077380585127,0.0004745234935074545
-0.93225,0.6238387751570837,3.757077380585127,0.000478215152330588
-0.9320000000000001,0.6274897567176151,3.760744469909785,0.000478215152330588
-0.93175,0.6238387751570837,3.764411559234443,0.0004819068111537215
-0.9315,0.6238387751570837,3.764411559234443,0.0004855984699768549
-0.93125,0.6274897567176151,3.768078648559102,0.0004855984699768549
-0.931,0.6238387751570837,3.77174573788376,0.0004855984699768549
-0.93075,0.6238387751570837,3.77174573788376,0.000492981787623122
-0.9305,0.6274897567176151,3.775412827208418,0.000492981787623122
-0.93025,0.6274897567176151,3.779079916533076,0.000492981787623122
-0.93,0.6274897567176151,3.779079916533076,0.0004966734464462554
-0.92975,0.6274897567176151,3.782747005857734,0.0005003651052693888
-0.9295,0.6274897567176151,3.786414095182393,0.0005040567640925222
