Physics/Experimental 1/Lab 1/Original Data/white led.csv

#Digilent WaveForms Oscilloscope Acquisition
#Device Name: Discovery2
#Serial Number: SN:210321A41F6B
#Date Time: 2024-01-30 16:55:27.155
#Sample rate: 4000Hz
#Samples: 8192
#Trigger: Source: Channel 1 Type: Edge Condition: Rising Level: 1.2 V Hyst.: Auto HoldOff: 0 s
#Channel 1: Range: 1 V/div Offset: 400 mV Attenuation: 1 X Sample Mode: Average
#Channel 2: Range: 1 V/div Offset: 400 mV Attenuation: 1 X Sample Mode: Average
#Math 1: Function: C2 * ( 0.0010067)

#Wavegen Channel 1: Running
#Mode: Simple
#Type: RampUp
#Frequency: 1 Hz
#Period: 1 s
#Amplitude: 5 V
#Offset: 0 V
#Symmetry: 100 %
#Phase: 0 °

Time (s),Channel 1 (V),Channel 2 (V),Math 1 (A)
-1.024,0.9562177089877646,0.001090615896302383,1.097923022807608e-06
-1.02375,0.959868690548296,0.00475770522096064,4.789581845941076e-06
-1.0235,0.959868690548296,0.00475770522096064,4.789581845941076e-06
-1.02325,0.9635196721088275,0.001090615896302383,1.097923022807608e-06
-1.023,0.9671706536693587,0.001090615896302383,1.097923022807608e-06
-1.02275,0.9671706536693587,0.001090615896302383,1.097923022807608e-06
-1.0225,0.9708216352298902,0.001090615896302383,1.097923022807608e-06
-1.02225,0.9744726167904197,0.001090615896302383,1.097923022807608e-06
-1.022,0.9744726167904214,0.001090615896302383,1.097923022807608e-06
-1.02175,0.9781235983509545,0.001090615896302383,1.097923022807608e-06
-1.0215,0.9817745799114826,0.001090615896302383,1.097923022807608e-06
-1.02125,0.9817745799114843,0.001090615896302383,1.097923022807608e-06
-1.021,0.9854255614720172,0.001090615896302383,1.097923022807608e-06
-1.02075,0.989076543032547,0.001090615896302383,1.097923022807608e-06
-1.0205,0.9927275245930782,0.001090615896302383,1.097923022807608e-06
-1.02025,0.9927275245930782,0.001090615896302383,1.097923022807608e-06
-1.02,0.9963785061536097,0.001090615896302383,1.097923022807608e-06
-1.01975,0.9963785061536113,0.001090615896302383,1.097923022807608e-06
-1.0195,1.00002948771414,0.001090615896302383,1.097923022807608e-06
-1.01925,1.003680469274672,0.001090615896302383,1.097923022807608e-06
-1.019,1.007331450835205,0.00109061589630405,1.097923022809287e-06
-1.01875,1.010982432395735,0.00475770522096064,4.789581845941076e-06
-1.0185,1.010982432395735,0.001090615896302383,1.097923022807608e-06
-1.01825,1.014633413956265,0.001090615896302383,1.097923022807608e-06
-1.018,1.018284395516798,0.001090615896302383,1.097923022807608e-06
-1.01775,1.018284395516799,0.001090615896302383,1.097923022807608e-06
-1.0175,1.021935377077328,0.001090615896302383,1.097923022807608e-06
-1.01725,1.021935377077329,0.001090615896302383,1.097923022807608e-06
-1.017,1.025586358637862,0.001090615896302383,1.097923022807608e-06
-1.01675,1.029237340198392,0.001090615896302383,1.097923022807608e-06
-1.0165,1.029237340198392,0.001090615896302383,1.097923022807608e-06
-1.01625,1.032888321758922,0.001090615896302383,1.097923022807608e-06
-1.016,1.036539303319455,0.001090615896302383,1.097923022807608e-06
-1.01575,1.040190284879986,0.001090615896302383,1.097923022807608e-06
-1.0155,1.040190284879986,0.001090615896302383,1.097923022807608e-06
-1.01525,1.043841266440517,0.001090615896302383,1.097923022807608e-06
-1.015,1.047492248001049,0.001090615896302383,1.097923022807608e-06
-1.01475,1.047492248001049,0.001090615896302383,1.097923022807608e-06
-1.0145,1.05114322956158,0.001090615896302383,1.097923022807608e-06
-1.01425,1.05479421112211,0.001090615896302383,1.097923022807608e-06
-1.014,1.054794211122111,0.001090615896302383,1.097923022807608e-06
-1.01375,1.058445192682644,0.001090615896302383,1.097923022807608e-06
-1.0135,1.062096174243173,0.001090615896302383,1.097923022807608e-06
-1.01325,1.065747155803705,0.001090615896302383,1.097923022807608e-06
-1.013,1.065747155803707,0.001090615896302383,1.097923022807608e-06
-1.01275,1.069398137364237,0.001090615896302383,1.097923022807608e-06
-1.0125,1.073049118924768,0.001090615896302383,1.097923022807608e-06
-1.01225,1.073049118924768,0.001090615896302383,1.097923022807608e-06
-1.012,1.0767001004853,0.001090615896302383,1.097923022807608e-06
-1.01175,1.080351082045831,0.001090615896302383,1.097923022807608e-06
-1.0115,1.080351082045831,0.001090615896302383,1.097923022807608e-06
-1.01125,1.084002063606362,0.001090615896302383,1.097923022807608e-06
-1.011,1.087653045166894,0.001090615896302383,1.097923022807608e-06
-1.01075,1.087653045166894,0.001090615896302383,1.097923022807608e-06
-1.0105,1.091304026727425,0.001090615896302383,1.097923022807608e-06
-1.01025,1.094955008287955,0.004757705220958973,4.789581845939397e-06
-1.01,1.098605989848488,0.00475770522096064,4.789581845941076e-06
-1.00975,1.098605989848489,0.001090615896302383,1.097923022807608e-06
-1.0095,1.102256971409018,0.001090615896302383,1.097923022807608e-06
-1.00925,1.102256971409019,0.001090615896302383,1.097923022807608e-06
-1.009,1.105907952969552,0.001090615896302383,1.097923022807608e-06
-1.00875,1.109558934530082,0.001090615896302383,1.097923022807608e-06
-1.0085,1.113209916090613,0.001090615896302383,1.097923022807608e-06
-1.00825,1.113209916090613,0.001090615896302383,1.097923022807608e-06
-1.008,1.116860897651145,0.001090615896302383,1.097923022807608e-06
-1.00775,1.120511879211676,0.001090615896302383,1.097923022807608e-06
-1.0075,1.120511879211676,0.001090615896302383,1.097923022807608e-06
-1.00725,1.124162860772207,0.001090615896302383,1.097923022807608e-06
-1.007,1.12781384233274,0.00475770522096064,4.789581845941076e-06
-1.00675,1.13146482389327,0.00475770522096064,4.789581845941076e-06
-1.0065,1.13146482389327,0.00475770522096064,4.789581845941076e-06
-1.00625,1.1351158054538,0.00475770522096064,4.789581845941076e-06
-1.006,1.135115805453802,0.00475770522096064,4.789581845941076e-06
-1.00575,1.138766787014334,0.001090615896302383,1.097923022807608e-06
-1.0055,1.142417768574863,0.001090615896302383,1.097923022807608e-06
-1.00525,1.146068750135395,0.00475770522096064,4.789581845941076e-06
-1.005,1.146068750135397,0.004757705220958972,4.789581845939397e-06
-1.00475,1.149719731695927,0.001090615896302383,1.097923022807608e-06
-1.0045,1.153370713256458,0.00475770522096064,4.789581845941076e-06
-1.00425,1.153370713256458,0.00475770522096064,4.789581845941076e-06
-1.004,1.15702169481699,0.00475770522096064,4.789581845941076e-06
-1.00375,1.157021694816991,0.001090615896302383,1.097923022807608e-06
-1.0035,1.160672676377519,0.001090615896302383,1.097923022807608e-06
-1.00325,1.164323657938052,0.001090615896302383,1.097923022807608e-06
-1.003,1.167974639498584,0.004757705220958972,4.789581845939397e-06
-1.00275,1.167974639498584,0.001090615896302383,1.097923022807608e-06
-1.0025,1.167974639498584,0.001090615896302383,1.097923022807608e-06
-1.00225,1.171625621059114,0.001090615896302383,1.097923022807608e-06
-1.002,1.175276602619646,0.001090615896302383,1.097923022807608e-06
-1.00175,1.178927584180179,0.001090615896302383,1.097923022807608e-06
-1.0015,1.182578565740709,0.001090615896302383,1.097923022807608e-06
-1.00125,1.182578565740709,0.001090615896302383,1.097923022807608e-06
-1.001,1.186229547301241,0.001090615896302383,1.097923022807608e-06
-1.00075,1.186229547301241,0.001090615896302383,1.097923022807608e-06
-1.0005,1.189880528861772,0.001090615896302383,1.097923022807608e-06
-1.00025,1.193531510422302,0.001090615896302383,1.097923022807608e-06
-1,1.197182491982835,0.001090615896302383,1.097923022807608e-06
-0.99975,1.197182491982835,0.001090615896302383,1.097923022807608e-06
-0.9995000000000001,1.200833473543366,0.001090615896302383,1.097923022807608e-06
-0.99925,1.204484455103897,0.001090615896302383,1.097923022807608e-06
-0.999,1.208135436664429,0.001090615896302383,1.097923022807608e-06
-0.99875,1.21178641822496,0.001090615896302383,1.097923022807608e-06
-0.9985000000000001,1.21178641822496,0.001090615896302383,1.097923022807608e-06
-0.99825,1.21178641822496,0.001090615896302383,1.097923022807608e-06
-0.998,1.215437399785491,0.001090615896302383,1.097923022807608e-06
-0.99775,1.219088381346023,0.001090615896302383,1.097923022807608e-06
-0.9975000000000001,1.222739362906554,0.001090615896302383,1.097923022807608e-06
-0.99725,1.222739362906554,0.001090615896302383,1.097923022807608e-06
-0.997,1.226390344467086,0.001090615896302383,1.097923022807608e-06
-0.99675,1.230041326027617,0.00475770522096064,4.789581845941076e-06
-0.9965000000000001,1.233692307588148,0.001090615896302383,1.097923022807608e-06
-0.99625,1.23734328914868,0.001090615896302383,1.097923022807608e-06
-0.996,1.23734328914868,0.001090615896302383,1.097923022807608e-06
-0.99575,1.240994270709211,0.001090615896302383,1.097923022807608e-06
-0.9955000000000001,1.244645252269742,0.001090615896302383,1.097923022807608e-06
-0.99525,1.248296233830274,0.001090615896302383,1.097923022807608e-06
-0.995,1.248296233830274,0.001090615896302383,1.097923022807608e-06
-0.99475,1.251947215390805,0.001090615896302383,1.097923022807608e-06
-0.9945000000000001,1.251947215390805,0.001090615896302383,1.097923022807608e-06
-0.99425,1.255598196951336,0.001090615896302383,1.097923022807608e-06
-0.994,1.259249178511868,0.001090615896302383,1.097923022807608e-06
-0.99375,1.262900160072399,0.001090615896302383,1.097923022807608e-06
-0.9935,1.262900160072399,0.001090615896302383,1.097923022807608e-06
-0.99325,1.26655114163293,0.001090615896302383,1.097923022807608e-06
-0.993,1.270202123193462,0.001090615896302383,1.097923022807608e-06
-0.99275,1.270202123193462,0.00475770522096064,4.789581845941076e-06
-0.9925,1.273853104753993,0.00475770522096064,4.789581845941076e-06
-0.99225,1.277504086314525,0.00475770522096064,4.789581845941076e-06
-0.992,1.277504086314525,0.001090615896302383,1.097923022807608e-06
-0.99175,1.281155067875056,0.001090615896302383,1.097923022807608e-06
-0.9915,1.284806049435587,0.001090615896302383,1.097923022807608e-06
-0.99125,1.284806049435587,0.001090615896302383,1.097923022807608e-06
-0.991,1.288457030996119,0.001090615896302383,1.097923022807608e-06
-0.99075,1.29210801255665,0.001090615896302383,1.097923022807608e-06
-0.9905,1.29210801255665,0.00475770522096064,4.789581845941076e-06
-0.99025,1.295758994117181,0.00475770522096064,4.789581845941076e-06
-0.99,1.299409975677713,0.00475770522096064,4.789581845941076e-06
-0.98975,1.299409975677713,0.00475770522096064,4.789581845941076e-06
-0.9895,1.303060957238244,0.001090615896302383,1.097923022807608e-06
-0.98925,1.306711938798776,0.001090615896302383,1.097923022807608e-06
-0.989,1.310362920359307,0.001090615896302383,1.097923022807608e-06
-0.98875,1.314013901919838,0.00475770522096064,4.789581845941076e-06
-0.9885,1.314013901919838,0.00475770522096064,4.789581845941076e-06
-0.98825,1.317664883480369,0.00475770522096064,4.789581845941076e-06
-0.988,1.317664883480369,0.001090615896302383,1.097923022807608e-06
-0.98775,1.321315865040901,0.00475770522096064,4.789581845941076e-06
-0.9875,1.321315865040901,0.00475770522096064,4.789581845941076e-06
-0.98725,1.324966846601432,0.001090615896302383,1.097923022807608e-06
-0.987,1.328617828161964,0.001090615896302383,1.097923022807608e-06
-0.98675,1.328617828161964,0.001090615896302383,1.097923022807608e-06
-0.9865,1.332268809722495,0.001090615896302383,1.097923022807608e-06
-0.98625,1.332268809722495,0.001090615896302383,1.097923022807608e-06
-0.986,1.335919791283026,0.001090615896302383,1.097923022807608e-06
-0.98575,1.339570772843558,0.001090615896302383,1.097923022807608e-06
-0.9855,1.339570772843558,0.001090615896302383,1.097923022807608e-06
-0.98525,1.343221754404089,0.001090615896302383,1.097923022807608e-06
-0.985,1.34687273596462,0.001090615896302383,1.097923022807608e-06
-0.98475,1.350523717525152,0.001090615896302383,1.097923022807608e-06
-0.9845,1.350523717525152,0.001090615896302383,1.097923022807608e-06
-0.98425,1.354174699085683,0.00475770522096064,4.789581845941076e-06
-0.984,1.357825680646215,0.00475770522096064,4.789581845941076e-06
-0.98375,1.357825680646215,0.001090615896302383,1.097923022807608e-06
-0.9835,1.361476662206746,0.001090615896302383,1.097923022807608e-06
-0.98325,1.365127643767277,0.00475770522096064,4.789581845941076e-06
-0.983,1.365127643767277,0.001090615896302383,1.097923022807608e-06
-0.98275,1.368778625327809,0.00475770522096064,4.789581845941076e-06
-0.9825,1.368778625327809,0.001090615896302383,1.097923022807608e-06
-0.98225,1.37242960688834,0.001090615896302383,1.097923022807608e-06
-0.982,1.376080588448871,0.001090615896302383,1.097923022807608e-06
-0.98175,1.379731570009403,0.001090615896302383,1.097923022807608e-06
-0.9815,1.379731570009403,0.001090615896302383,1.097923022807608e-06
-0.98125,1.383382551569934,0.001090615896302383,1.097923022807608e-06
-0.981,1.387033533130466,0.001090615896302383,1.097923022807608e-06
-0.98075,1.387033533130466,0.001090615896302383,1.097923022807608e-06
-0.9805,1.390684514690997,0.001090615896302383,1.097923022807608e-06
-0.98025,1.394335496251528,0.001090615896302383,1.097923022807608e-06
-0.98,1.394335496251528,0.001090615896302383,1.097923022807608e-06
-0.97975,1.39798647781206,0.001090615896302383,1.097923022807608e-06
-0.9795,1.401637459372591,0.001090615896302383,1.097923022807608e-06
-0.97925,1.401637459372591,0.001090615896302383,1.097923022807608e-06
-0.979,1.405288440933122,0.001090615896302383,1.097923022807608e-06
-0.97875,1.408939422493654,0.001090615896302383,1.097923022807608e-06
-0.9785,1.408939422493654,0.001090615896302383,1.097923022807608e-06
-0.97825,1.412590404054185,0.001090615896302383,1.097923022807608e-06
-0.978,1.416241385614716,0.001090615896302383,1.097923022807608e-06
-0.97775,1.419892367175248,0.001090615896302383,1.097923022807608e-06
-0.9775,1.419892367175248,0.001090615896302383,1.097923022807608e-06
-0.97725,1.423543348735779,0.001090615896302383,1.097923022807608e-06
-0.977,1.42719433029631,0.001090615896302383,1.097923022807608e-06
-0.97675,1.42719433029631,0.001090615896302383,1.097923022807608e-06
-0.9765,1.430845311856842,0.001090615896302383,1.097923022807608e-06
-0.97625,1.430845311856842,0.001090615896302383,1.097923022807608e-06
-0.976,1.434496293417373,0.001090615896302383,1.097923022807608e-06
-0.97575,1.438147274977905,0.001090615896302383,1.097923022807608e-06
-0.9755,1.438147274977905,0.001090615896302383,1.097923022807608e-06
-0.97525,1.441798256538436,0.001090615896302383,1.097923022807608e-06
-0.975,1.445449238098967,0.001090615896302383,1.097923022807608e-06
-0.97475,1.449100219659499,0.001090615896302383,1.097923022807608e-06
-0.9745,1.449100219659499,0.001090615896302383,1.097923022807608e-06
-0.9742499999999999,1.45275120122003,0.001090615896302383,1.097923022807608e-06
-0.974,1.456402182780561,0.001090615896302383,1.097923022807608e-06
-0.97375,1.460053164341093,0.001090615896302383,1.097923022807608e-06
-0.9735,1.460053164341093,0.001090615896302383,1.097923022807608e-06
-0.9732499999999999,1.463704145901624,0.001090615896302383,1.097923022807608e-06
-0.973,1.467355127462155,0.001090615896302383,1.097923022807608e-06
-0.97275,1.467355127462155,0.001090615896302383,1.097923022807608e-06
-0.9725,1.471006109022687,0.001090615896302383,1.097923022807608e-06
-0.9722499999999999,1.471006109022687,0.001090615896302383,1.097923022807608e-06
-0.972,1.474657090583218,0.00475770522096064,4.789581845941076e-06
-0.97175,1.47830807214375,0.00475770522096064,4.789581845941076e-06
-0.9715,1.481959053704281,0.001090615896302383,1.097923022807608e-06
-0.9712499999999999,1.481959053704281,0.001090615896302383,1.097923022807608e-06
-0.971,1.485610035264812,0.001090615896302383,1.097923022807608e-06
-0.97075,1.489261016825344,0.001090615896302383,1.097923022807608e-06
-0.9705,1.489261016825344,0.001090615896302383,1.097923022807608e-06
-0.9702499999999999,1.492911998385875,0.001090615896302383,1.097923022807608e-06
-0.97,1.492911998385875,0.00475770522096064,4.789581845941076e-06
-0.96975,1.496562979946406,0.00475770522096064,4.789581845941076e-06
-0.9695,1.500213961506938,0.00475770522096064,4.789581845941076e-06
-0.9692499999999999,1.503864943067469,0.00475770522096064,4.789581845941076e-06
-0.969,1.507515924628001,0.00475770522096064,4.789581845941076e-06
-0.96875,1.507515924628001,0.001090615896302383,1.097923022807608e-06
-0.9685,1.511166906188532,0.001090615896302383,1.097923022807608e-06
-0.9682500000000001,1.511166906188532,0.001090615896302383,1.097923022807608e-06
-0.968,1.514817887749063,0.001090615896302383,1.097923022807608e-06
-0.96775,1.518468869309594,0.001090615896302383,1.097923022807608e-06
-0.9675,1.518468869309594,0.001090615896302383,1.097923022807608e-06
-0.9672500000000001,1.522119850870126,0.00475770522096064,4.789581845941076e-06
-0.967,1.525770832430657,0.00475770522096064,4.789581845941076e-06
-0.96675,1.525770832430657,0.001090615896302383,1.097923022807608e-06
-0.9665,1.529421813991189,0.00475770522096064,4.789581845941076e-06
-0.9662500000000001,1.53307279555172,0.00475770522096064,4.789581845941076e-06
-0.966,1.536723777112251,0.00475770522096064,4.789581845941076e-06
-0.96575,1.540374758672783,0.001090615896302383,1.097923022807608e-06
-0.9655,1.540374758672783,0.001090615896302383,1.097923022807608e-06
-0.9652500000000001,1.544025740233314,0.001090615896302383,1.097923022807608e-06
-0.965,1.544025740233314,0.001090615896302383,1.097923022807608e-06
-0.96475,1.547676721793845,0.00475770522096064,4.789581845941076e-06
-0.9645,1.551327703354377,0.00475770522096064,4.789581845941076e-06
-0.9642500000000001,1.554978684914908,0.00475770522096064,4.789581845941076e-06
-0.964,1.554978684914908,0.001090615896302383,1.097923022807608e-06
-0.96375,1.55862966647544,0.001090615896302383,1.097923022807608e-06
-0.9635,1.562280648035971,0.001090615896302383,1.097923022807608e-06
-0.9632500000000001,1.562280648035971,0.001090615896302383,1.097923022807608e-06
-0.963,1.565931629596502,0.001090615896302383,1.097923022807608e-06
-0.96275,1.569582611157034,0.00475770522096064,4.789581845941076e-06
-0.9625,1.569582611157034,0.001090615896302383,1.097923022807608e-06
-0.96225,1.573233592717565,0.00475770522096064,4.789581845941076e-06
-0.962,1.576884574278096,0.001090615896302383,1.097923022807608e-06
-0.96175,1.576884574278096,0.001090615896302383,1.097923022807608e-06
-0.9615,1.580535555838628,0.00475770522096064,4.789581845941076e-06
-0.96125,1.584186537399159,0.001090615896302383,1.097923022807608e-06
-0.961,1.58783751895969,0.00475770522096064,4.789581845941076e-06
-0.96075,1.58783751895969,0.001090615896302383,1.097923022807608e-06
-0.9605,1.591488500520222,0.00475770522096064,4.789581845941076e-06
-0.96025,1.595139482080753,0.00475770522096064,4.789581845941076e-06
-0.96,1.595139482080753,0.00475770522096064,4.789581845941076e-06
-0.95975,1.598790463641285,0.001090615896302383,1.097923022807608e-06
-0.9595,1.602441445201816,0.00475770522096064,4.789581845941076e-06
-0.95925,1.602441445201816,0.00475770522096064,4.789581845941076e-06
-0.959,1.606092426762347,0.001090615896302383,1.097923022807608e-06
-0.95875,1.609743408322879,0.00475770522096064,4.789581845941076e-06
-0.9585,1.609743408322879,0.00475770522096064,4.789581845941076e-06
-0.95825,1.61339438988341,0.00475770522096064,4.789581845941076e-06
-0.958,1.617045371443941,0.001090615896302383,1.097923022807608e-06
-0.95775,1.617045371443941,0.001090615896302383,1.097923022807608e-06
-0.9575,1.620696353004473,0.001090615896302383,1.097923022807608e-06
-0.95725,1.624347334565004,0.00475770522096064,4.789581845941076e-06
-0.957,1.624347334565004,0.00475770522096064,4.789581845941076e-06
-0.95675,1.627998316125535,0.001090615896302383,1.097923022807608e-06
-0.9565,1.631649297686067,0.00475770522096064,4.789581845941076e-06
-0.95625,1.631649297686067,0.00475770522096064,4.789581845941076e-06
-0.956,1.635300279246598,0.001090615896302383,1.097923022807608e-06
-0.95575,1.63895126080713,0.00475770522096064,4.789581845941076e-06
-0.9555,1.63895126080713,0.001090615896302383,1.097923022807608e-06
-0.95525,1.642602242367661,0.001090615896302383,1.097923022807608e-06
-0.955,1.646253223928192,0.001090615896302383,1.097923022807608e-06
